hello.vcd
$date
	Sun May  8 13:30:05 2016
$end
$version
	Icarus Verilog
$end
$timescale
	1s
$end
$scope module main $end
$var wire 64 ! D0bTarget [0:63] $end
$var wire 64 " D0bcTarget [0:63] $end
$var wire 64 # D0bclrTarget [0:63] $end
$var wire 64 $ D0branchTarget [0:63] $end
$var wire 1 % D0condOk $end
$var wire 1 & D0ctrOk $end
$var wire 32 ' D0inst [0:31] $end
$var wire 1 ( D0isAdd $end
$var wire 1 ) D0isAddi $end
$var wire 1 * D0isB $end
$var wire 1 + D0isBc $end
$var wire 1 , D0isBclr $end
$var wire 1 - D0isBranching $end
$var wire 1 . D0isLd $end
$var wire 1 / D0isLdu $end
$var wire 1 0 D0isMTCrf $end
$var wire 1 1 D0isMTSpr $end
$var wire 1 2 D0isOr $end
$var wire 1 3 D0isSc $end
$var wire 1 4 D0isStd $end
$var wire 8 5 D0lev [0:7] $end
$var wire 1 6 D0noRead0 $end
$var wire 1 7 D0noRead1 $end
$var wire 1 8 D0noWrite0 $end
$var wire 1 9 D0noWrite1 $end
$var wire 6 : D0opcode [0:5] $end
$var wire 5 ; D0ra [0:4] $end
$var wire 5 < D0rb [0:4] $end
$var wire 1 = D0read0 $end
$var wire 1 > D0read0WBread $end
$var wire 1 ? D0read0WBwrite $end
$var wire 1 @ D0read0Xread $end
$var wire 1 A D0read0Xwrite $end
$var wire 1 B D0read1 $end
$var wire 1 C D0read1WBread $end
$var wire 1 D D0read1WBwrite $end
$var wire 1 E D0read1Xread $end
$var wire 1 F D0read1Xwrite $end
$var wire 5 G D0readA [0:4] $end
$var wire 1 H D0readAEQWBreadA $end
$var wire 1 I D0readAEQWBreadB $end
$var wire 1 J D0readAEQWBwriteA $end
$var wire 1 K D0readAEQWBwriteB $end
$var wire 1 L D0readAEQXreadA $end
$var wire 1 M D0readAEQXreadB $end
$var wire 1 N D0readAEQXwriteA $end
$var wire 1 O D0readAEQXwriteB $end
$var wire 1 P D0readARWBreadA $end
$var wire 1 Q D0readARWBreadB $end
$var wire 1 R D0readARXreadA $end
$var wire 1 S D0readARXreadB $end
$var wire 1 T D0readAUWBwriteA $end
$var wire 1 U D0readAUWBwriteB $end
$var wire 1 V D0readAUXwriteA $end
$var wire 1 W D0readAUXwriteB $end
$var wire 5 X D0readB [0:4] $end
$var wire 1 Y D0readBEQWBreadA $end
$var wire 1 Z D0readBEQWBreadB $end
$var wire 1 [ D0readBEQWBwriteA $end
$var wire 1 \ D0readBEQWBwriteB $end
$var wire 1 ] D0readBEQXreadA $end
$var wire 1 ^ D0readBEQXreadB $end
$var wire 1 _ D0readBEQXwriteA $end
$var wire 1 ` D0readBEQXwriteB $end
$var wire 1 a D0readBRWBreadA $end
$var wire 1 b D0readBRWBreadB $end
$var wire 1 c D0readBRXreadA $end
$var wire 1 d D0readBRXreadB $end
$var wire 1 e D0readBUWBwriteA $end
$var wire 1 f D0readBUWBwriteB $end
$var wire 1 g D0readBUXwriteA $end
$var wire 1 h D0readBUXwriteB $end
$var wire 5 i D0rs [0:4] $end
$var wire 5 j D0rt [0:4] $end
$var wire 10 k D0spr [0:9] $end
$var wire 4 l D0vaState [0:3] $end
$var wire 4 m D0vbState [0:3] $end
$var wire 1 n D0write0 $end
$var wire 1 o D0write0D1write $end
$var wire 1 p D0write1 $end
$var wire 1 q D0write1D1write $end
$var wire 5 r D0writeA [0:4] $end
$var wire 1 s D0writeAEQD1writeA $end
$var wire 1 t D0writeAEQD1writeB $end
$var wire 1 u D0writeAUD1writeA $end
$var wire 1 v D0writeAUD1writeB $end
$var wire 5 w D0writeB [0:4] $end
$var wire 1 x D0writeBEQD1writeA $end
$var wire 1 y D0writeBEQD1writeB $end
$var wire 1 z D0writeBUD1writeA $end
$var wire 1 { D0writeBUD1writeB $end
$var wire 10 | D0xop10 [0:9] $end
$var wire 9 } D0xop9 [0:8] $end
$var wire 64 ~ D1bTarget [0:63] $end
$var wire 64 !" D1bcTarget [0:63] $end
$var wire 64 "" D1bclrTarget [0:63] $end
$var wire 64 #" D1branchTarget [0:63] $end
$var wire 1 $" D1condOk $end
$var wire 1 %" D1ctrOk $end
$var wire 32 &" D1inst [0:31] $end
$var wire 1 '" D1isAdd $end
$var wire 1 (" D1isAddi $end
$var wire 1 )" D1isB $end
$var wire 1 *" D1isBc $end
$var wire 1 +" D1isBclr $end
$var wire 1 ," D1isBranching $end
$var wire 1 -" D1isLd $end
$var wire 1 ." D1isLdu $end
$var wire 1 /" D1isMTCrf $end
$var wire 1 0" D1isMTSpr $end
$var wire 1 1" D1isOr $end
$var wire 1 2" D1isSc $end
$var wire 1 3" D1isStd $end
$var wire 8 4" D1lev [0:7] $end
$var wire 1 5" D1noRead0 $end
$var wire 1 6" D1noRead1 $end
$var wire 6 7" D1opcode [0:5] $end
$var wire 5 8" D1ra [0:4] $end
$var wire 5 9" D1rb [0:4] $end
$var wire 1 :" D1read0 $end
$var wire 1 ;" D1read0D0read $end
$var wire 1 <" D1read0D0write $end
$var wire 1 =" D1read0WBread $end
$var wire 1 >" D1read0WBwrite $end
$var wire 1 ?" D1read0Xread $end
$var wire 1 @" D1read0Xwrite $end
$var wire 1 A" D1read1 $end
$var wire 1 B" D1read1D0read $end
$var wire 1 C" D1read1D0write $end
$var wire 1 D" D1read1WBread $end
$var wire 1 E" D1read1WBwrite $end
$var wire 1 F" D1read1Xread $end
$var wire 1 G" D1read1Xwrite $end
$var wire 5 H" D1readA [0:4] $end
$var wire 1 I" D1readAEQD0QXwriteB $end
$var wire 1 J" D1readAEQD0readA $end
$var wire 1 K" D1readAEQD0readB $end
$var wire 1 L" D1readAEQD0writeA $end
$var wire 1 M" D1readAEQWBreadA $end
$var wire 1 N" D1readAEQWBreadB $end
$var wire 1 O" D1readAEQWBwriteA $end
$var wire 1 P" D1readAEQWBwriteB $end
$var wire 1 Q" D1readAEQXreadA $end
$var wire 1 R" D1readAEQXreadB $end
$var wire 1 S" D1readAEQXwriteA $end
$var wire 1 T" D1readAEQXwriteB $end
$var wire 1 U" D1readARD0readA $end
$var wire 1 V" D1readARD0readB $end
$var wire 1 W" D1readARWBreadA $end
$var wire 1 X" D1readARWBreadB $end
$var wire 1 Y" D1readARXreadA $end
$var wire 1 Z" D1readARXreadB $end
$var wire 1 [" D1readAUD0writeA $end
$var wire 1 \" D1readAUD0writeB $end
$var wire 1 ]" D1readAUWBwriteA $end
$var wire 1 ^" D1readAUWBwriteB $end
$var wire 1 _" D1readAUXwriteA $end
$var wire 1 `" D1readAUXwriteB $end
$var wire 5 a" D1readB [0:4] $end
$var wire 1 b" D1readBEQD0readA $end
$var wire 1 c" D1readBEQD0readB $end
$var wire 1 d" D1readBEQD0writeA $end
$var wire 1 e" D1readBEQD0writeB $end
$var wire 1 f" D1readBEQWBreadA $end
$var wire 1 g" D1readBEQWBreadB $end
$var wire 1 h" D1readBEQWBwriteA $end
$var wire 1 i" D1readBEQWBwriteB $end
$var wire 1 j" D1readBEQXreadA $end
$var wire 1 k" D1readBEQXreadB $end
$var wire 1 l" D1readBEQXwriteA $end
$var wire 1 m" D1readBEQXwriteB $end
$var wire 1 n" D1readBRD0readA $end
$var wire 1 o" D1readBRD0readB $end
$var wire 1 p" D1readBRWBreadA $end
$var wire 1 q" D1readBRWBreadB $end
$var wire 1 r" D1readBRXreadA $end
$var wire 1 s" D1readBRXreadB $end
$var wire 1 t" D1readBUD0writeA $end
$var wire 1 u" D1readBUD0writeB $end
$var wire 1 v" D1readBUWBwriteA $end
$var wire 1 w" D1readBUWBwriteB $end
$var wire 1 x" D1readBUXwriteA $end
$var wire 1 y" D1readBUXwriteB $end
$var wire 5 z" D1rs [0:4] $end
$var wire 5 {" D1rt [0:4] $end
$var wire 10 |" D1spr [0:9] $end
$var wire 4 }" D1vaState [0:3] $end
$var wire 4 ~" D1vbState [0:3] $end
$var wire 1 !# D1write0 $end
$var wire 1 "# D1write1 $end
$var wire 5 ## D1writeA [0:4] $end
$var wire 5 $# D1writeB [0:4] $end
$var wire 10 %# D1xop10 [0:9] $end
$var wire 9 &# D1xop9 [0:8] $end
$var wire 1 '# Dread0 $end
$var wire 1 (# Dread1 $end
$var wire 5 )# DreadA [0:4] $end
$var wire 5 *# DreadB [0:4] $end
$var wire 1 +# Dwrite0 $end
$var wire 1 ,# Dwrite1 $end
$var wire 5 -# DwriteA [0:4] $end
$var wire 5 .# DwriteB [0:4] $end
$var wire 1 /# WB0isAdd $end
$var wire 1 0# WB0isAddi $end
$var wire 1 1# WB0isLd $end
$var wire 1 2# WB0isLdu $end
$var wire 1 3# WB0isMFSpr $end
$var wire 1 4# WB0isOr $end
$var wire 1 5# WB0isSc $end
$var wire 1 6# WB0isStd $end
$var wire 8 7# WB0lev [0:7] $end
$var wire 6 8# WB0opcode [0:5] $end
$var wire 5 9# WB0ra [0:4] $end
$var wire 5 :# WB0rt [0:4] $end
$var wire 64 ;# WB0si [0:63] $end
$var wire 10 <# WB0spr [0:9] $end
$var wire 5 =# WB0writeA [0:4] $end
$var wire 5 ># WB0writeB [0:4] $end
$var wire 10 ?# WB0xop10 [0:9] $end
$var wire 9 @# WB0xop9 [0:8] $end
$var wire 1 A# WB1isAdd $end
$var wire 1 B# WB1isAddi $end
$var wire 1 C# WB1isLd $end
$var wire 1 D# WB1isLdu $end
$var wire 1 E# WB1isMFSpr $end
$var wire 1 F# WB1isOr $end
$var wire 1 G# WB1isSc $end
$var wire 1 H# WB1isStd $end
$var wire 8 I# WB1lev [0:7] $end
$var wire 6 J# WB1opcode [0:5] $end
$var wire 5 K# WB1ra [0:4] $end
$var wire 5 L# WB1rt [0:4] $end
$var wire 64 M# WB1si [0:63] $end
$var wire 10 N# WB1spr [0:9] $end
$var wire 64 O# WB1va [0:63] $end
$var wire 64 P# WB1vb [0:63] $end
$var wire 5 Q# WB1writeA [0:4] $end
$var wire 5 R# WB1writeB [0:4] $end
$var wire 10 S# WB1xop10 [0:9] $end
$var wire 9 T# WB1xop9 [0:8] $end
$var wire 8 U# X0crm [0:7] $end
$var wire 64 V# X0ds [0:63] $end
$var wire 1 W# X0isAdd $end
$var wire 1 X# X0isAddi $end
$var wire 1 Y# X0isLd $end
$var wire 1 Z# X0isLdu $end
$var wire 1 [# X0isMFSpr $end
$var wire 1 \# X0isMTCrf $end
$var wire 1 ]# X0isMTSpr $end
$var wire 1 ^# X0isOr $end
$var wire 1 _# X0isSc $end
$var wire 1 `# X0isStd $end
$var wire 8 a# X0lev [0:7] $end
$var wire 1 b# X0oe $end
$var wire 6 c# X0opcode [0:5] $end
$var wire 5 d# X0ra [0:4] $end
$var wire 5 e# X0rb [0:4] $end
$var wire 1 f# X0rc $end
$var wire 64 g# X0readva [0:63] $end
$var wire 64 h# X0readvb [0:63] $end
$var wire 5 i# X0regA [0:4] $end
$var wire 1 j# X0regAEQXA $end
$var wire 1 k# X0regAEQXB $end
$var wire 1 l# X0regARXA $end
$var wire 1 m# X0regARXB $end
$var wire 5 n# X0regB [0:4] $end
$var wire 1 o# X0regBEQXA $end
$var wire 1 p# X0regBEQXB $end
$var wire 1 q# X0regBRXA $end
$var wire 1 r# X0regBRXB $end
$var wire 5 s# X0rs [0:4] $end
$var wire 5 t# X0rt [0:4] $end
$var wire 10 u# X0spr [0:9] $end
$var wire 64 v# X0va [0:63] $end
$var wire 64 w# X0vb [0:63] $end
$var wire 10 x# X0xop10 [0:9] $end
$var wire 9 y# X0xop9 [0:8] $end
$var wire 8 z# X1crm [0:7] $end
$var wire 64 {# X1ds [0:63] $end
$var wire 1 |# X1isAdd $end
$var wire 1 }# X1isAddi $end
$var wire 1 ~# X1isLd $end
$var wire 1 !$ X1isLdu $end
$var wire 1 "$ X1isMFSpr $end
$var wire 1 #$ X1isMTCrf $end
$var wire 1 $$ X1isMTSpr $end
$var wire 1 %$ X1isOr $end
$var wire 1 &$ X1isSc $end
$var wire 1 '$ X1isStd $end
$var wire 8 ($ X1lev [0:7] $end
$var wire 1 )$ X1oe $end
$var wire 6 *$ X1opcode [0:5] $end
$var wire 5 +$ X1ra [0:4] $end
$var wire 5 ,$ X1rb [0:4] $end
$var wire 1 -$ X1rc $end
$var wire 64 .$ X1readva [0:63] $end
$var wire 64 /$ X1readvb [0:63] $end
$var wire 5 0$ X1regA [0:4] $end
$var wire 1 1$ X1regAEQXA $end
$var wire 1 2$ X1regAEQXB $end
$var wire 1 3$ X1regARXA $end
$var wire 1 4$ X1regARXB $end
$var wire 5 5$ X1regB [0:4] $end
$var wire 1 6$ X1regBEQXA $end
$var wire 1 7$ X1regBEQXB $end
$var wire 1 8$ X1regBRXA $end
$var wire 1 9$ X1regBRXB $end
$var wire 5 :$ X1rs [0:4] $end
$var wire 5 ;$ X1rt [0:4] $end
$var wire 10 <$ X1spr [0:9] $end
$var wire 64 =$ X1va [0:63] $end
$var wire 64 >$ X1vb [0:63] $end
$var wire 10 ?$ X1xop10 [0:9] $end
$var wire 9 @$ X1xop9 [0:8] $end
$var wire 1 A$ canParallel $end
$var wire 1 B$ canParallelReadRegs $end
$var wire 1 C$ canParallelWriteRegs $end
$var wire 1 D$ clk $end
$var wire 64 E$ fetch [0:63] $end
$var wire 1 F$ halt $end
$var wire 61 G$ memReadAddr0 [0:60] $end
$var wire 61 H$ memReadAddr1 [0:60] $end
$var wire 64 I$ memReadData0 [0:63] $end
$var wire 64 J$ memReadData1 [0:63] $end
$var wire 1 K$ memReadEn0 $end
$var wire 1 L$ memReadEn1 $end
$var wire 61 M$ memWriteAddr [0:60] $end
$var wire 64 N$ memWriteData [0:63] $end
$var wire 1 O$ memWriteEn $end
$var wire 4 P$ newCr [0:3] $end
$var wire 6 Q$ nextHead [0:5] $end
$var wire 6 R$ nextTail [0:5] $end
$var wire 64 S$ nextTruePc [0:63] $end
$var wire 64 T$ nextpc [0:63] $end
$var wire 64 U$ pcPlus8 [0:63] $end
$var wire 3 V$ readNum [0:2] $end
$var wire 2 W$ readNumParallel [0:1] $end
$var wire 5 X$ regReadAddr0 [0:4] $end
$var wire 5 Y$ regReadAddr1 [0:4] $end
$var wire 64 Z$ regReadData0 [0:63] $end
$var wire 64 [$ regReadData1 [0:63] $end
$var wire 1 \$ regReadEn0 $end
$var wire 1 ]$ regReadEn1 $end
$var wire 5 ^$ regWriteAddr0 [0:4] $end
$var wire 5 _$ regWriteAddr1 [0:4] $end
$var wire 64 `$ regWriteData0 [0:63] $end
$var wire 64 a$ regWriteData1 [0:63] $end
$var wire 1 b$ regWriteEn0 $end
$var wire 1 c$ regWriteEn1 $end
$var wire 1 d$ stopFetch $end
$var wire 3 e$ writeNum [0:2] $end
$var wire 2 f$ writeNumParallel [0:1] $end
$var reg 64 g$ TruePc [0:63] $end
$var reg 32 h$ WB0inst [0:31] $end
$var reg 64 i$ WB0va [0:63] $end
$var reg 4 j$ WB0vaState [0:3] $end
$var reg 64 k$ WB0vb [0:63] $end
$var reg 4 l$ WB0vbState [0:3] $end
$var reg 32 m$ WB1inst [0:31] $end
$var reg 4 n$ WB1vaState [0:3] $end
$var reg 64 o$ WB1vaUnchecked [0:63] $end
$var reg 4 p$ WB1vbState [0:3] $end
$var reg 64 q$ WB1vbUnchecked [0:63] $end
$var reg 1 r$ WBread0 $end
$var reg 1 s$ WBread1 $end
$var reg 5 t$ WBreadA [0:4] $end
$var reg 5 u$ WBreadB [0:4] $end
$var reg 1 v$ WBwrite0 $end
$var reg 1 w$ WBwrite1 $end
$var reg 5 x$ WBwriteA [0:4] $end
$var reg 5 y$ WBwriteB [0:4] $end
$var reg 32 z$ X0inst [0:31] $end
$var reg 4 {$ X0vaState [0:3] $end
$var reg 4 |$ X0vbState [0:3] $end
$var reg 32 }$ X1inst [0:31] $end
$var reg 4 ~$ X1vaState [0:3] $end
$var reg 4 !% X1vbState [0:3] $end
$var reg 1 "% Xread0 $end
$var reg 1 #% Xread1 $end
$var reg 5 $% XreadA [0:4] $end
$var reg 5 %% XreadB [0:4] $end
$var reg 1 &% Xwrite0 $end
$var reg 1 '% Xwrite1 $end
$var reg 5 (% XwriteA [0:4] $end
$var reg 5 )% XwriteB [0:4] $end
$var reg 32 *% cr [0:31] $end
$var reg 64 +% ctr [0:63] $end
$var reg 6 ,% head [0:5] $end
$var integer 32 -% i [31:0] $end
$var reg 64 .% lr [0:63] $end
$var reg 64 /% oldWBreadA [0:63] $end
$var reg 64 0% oldWBreadB [0:63] $end
$var reg 64 1% oldWBwriteA [0:63] $end
$var reg 64 2% oldWBwriteB [0:63] $end
$var reg 64 3% pc [0:63] $end
$var reg 1 4% state $end
$var reg 6 5% tail [0:5] $end
$var reg 32 6% xer [0:31] $end
$scope module clock0 $end
$var wire 1 D$ clk $end
$var wire 1 F$ halt $end
$var reg 16 7% cycles [15:0] $end
$var reg 1 8% theClock $end
$upscope $end
$scope module mem0 $end
$var wire 1 D$ clk $end
$var wire 61 9% readAddr0 [63:3] $end
$var wire 61 :% readAddr1 [63:3] $end
$var wire 64 ;% readData0 [63:0] $end
$var wire 64 <% readData1 [63:0] $end
$var wire 1 K$ readEn0 $end
$var wire 1 L$ readEn1 $end
$var wire 61 =% writeAddr [63:3] $end
$var wire 64 >% writeData [63:0] $end
$var wire 1 O$ writeEn $end
$var reg 64 ?% d0 [63:0] $end
$var reg 64 @% d1 [63:0] $end
$upscope $end
$scope module gprs $end
$var wire 1 D$ clk $end
$var wire 5 A% readAddr0 [4:0] $end
$var wire 5 B% readAddr1 [4:0] $end
$var wire 64 C% readData0 [63:0] $end
$var wire 64 D% readData1 [63:0] $end
$var wire 1 \$ readEn0 $end
$var wire 1 ]$ readEn1 $end
$var wire 5 E% writeAddr0 [4:0] $end
$var wire 5 F% writeAddr1 [4:0] $end
$var wire 64 G% writeData0 [63:0] $end
$var wire 64 H% writeData1 [63:0] $end
$var wire 1 b$ writeEn0 $end
$var wire 1 c$ writeEn1 $end
$var reg 64 I% d0 [63:0] $end
$var reg 64 J% d1 [63:0] $end
$upscope $end
$upscope $end
$enddefinitions $end
#0
$dumpvars
bx J%
bx I%
bz H%
bz G%
bz F%
bz E%
bx D%
bx C%
b0 B%
b0 A%
bx @%
bx ?%
bz >%
bz =%
bx <%
bx ;%
bz :%
b0 9%
08%
b0 7%
b0 6%
b0 5%
04%
b0 3%
b0 2%
b0 1%
b0 0%
b0 /%
b0 .%
b100000 -%
b0 ,%
b0 +%
b0 *%
b0 )%
b0 (%
0'%
0&%
b0 %%
b0 $%
0#%
0"%
b0 !%
b0 ~$
b0 }$
b0 |$
b0 {$
b0 z$
b0 y$
b0 x$
0w$
0v$
b0 u$
b0 t$
0s$
0r$
b0 q$
b0 p$
b0 o$
b0 n$
b0 m$
b0 l$
b0 k$
b0 j$
b0 i$
b0 h$
b0 g$
b0 f$
b0 e$
0d$
zc$
zb$
bz a$
bz `$
bz _$
bz ^$
0]$
0\$
bx [$
bx Z$
b0 Y$
b0 X$
b0 W$
b0 V$
b1000 U$
b1000 T$
b1000 S$
b0 R$
b0 Q$
bz P$
zO$
bz N$
bz M$
0L$
1K$
bx J$
bx I$
bz H$
b0 G$
0F$
b0 E$
0D$
1C$
1B$
1A$
b0 @$
b0 ?$
b0 >$
b0 =$
b0 <$
b0 ;$
b0 :$
09$
08$
17$
16$
b0 5$
04$
03$
12$
11$
b0 0$
b0 /$
b0 .$
0-$
b0 ,$
b0 +$
b0 *$
0)$
b0 ($
0'$
0&$
0%$
0$$
0#$
0"$
0!$
0~#
0}#
0|#
b0 {#
b0 z#
b0 y#
b0 x#
b0 w#
b0 v#
b0 u#
b0 t#
b0 s#
0r#
0q#
xp#
xo#
bx n#
0m#
0l#
1k#
1j#
b0 i#
b0 h#
b0 g#
0f#
b0 e#
b0 d#
b0 c#
0b#
b0 a#
0`#
0_#
0^#
0]#
0\#
0[#
0Z#
0Y#
0X#
0W#
b0 V#
b0 U#
b0 T#
b0 S#
b0 R#
b0 Q#
b0 P#
b0 O#
b0 N#
b0 M#
b0 L#
b0 K#
b0 J#
b0 I#
0H#
0G#
0F#
0E#
0D#
0C#
0B#
0A#
b0 @#
b0 ?#
b0 >#
b0 =#
b0 <#
b0 ;#
b0 :#
b0 9#
b0 8#
b0 7#
06#
05#
04#
03#
02#
01#
00#
0/#
b0 .#
b0 -#
0,#
0+#
b0 *#
b0 )#
0(#
0'#
b0 &#
b0 %#
b0 $#
b0 ##
0"#
0!#
b0 ~"
b0 }"
b0 |"
b0 {"
b0 z"
0y"
0x"
0w"
0v"
0u"
0t"
0s"
0r"
0q"
0p"
0o"
0n"
1m"
1l"
1k"
1j"
1i"
1h"
1g"
1f"
1e"
1d"
1c"
1b"
b0 a"
0`"
0_"
0^"
0]"
0\"
0["
0Z"
0Y"
0X"
0W"
0V"
0U"
1T"
1S"
1R"
1Q"
1P"
1O"
1N"
1M"
1L"
1K"
1J"
1I"
b0 H"
0G"
0F"
0E"
0D"
0C"
0B"
0A"
0@"
0?"
0>"
0="
0<"
0;"
0:"
b0 9"
b0 8"
b0 7"
06"
05"
b0 4"
03"
02"
01"
00"
0/"
0."
0-"
0,"
0+"
0*"
0)"
0("
0'"
b0 &"
1%"
x$"
b0 #"
b0 ""
b0 !"
b0 ~
b0 }
b0 |
0{
0z
1y
1x
b0 w
0v
0u
1t
1s
b0 r
0q
0p
0o
0n
b0 m
b0 l
b0 k
b0 j
b0 i
0h
0g
0f
0e
0d
0c
0b
0a
1`
1_
1^
1]
1\
1[
1Z
1Y
b0 X
0W
0V
0U
0T
0S
0R
0Q
0P
1O
1N
1M
1L
1K
1J
1I
1H
b0 G
0F
0E
0D
0C
0B
0A
0@
0?
0>
0=
b0 <
b0 ;
b0 :
19
18
07
06
b0 5
04
03
02
01
00
0/
0.
0-
0,
0+
0*
0)
0(
b0 '
1&
x%
b0 $
b0 #
b0 "
b0 !
$end
#1
b10 R$
b10 Q$
b10000 S$
b11100000000000000000000000000000111000011000000000000001101000 E$
b10000 T$
b1000 !
b1000 "
b1000 ~
b1000 !"
b1 G$
b1 9%
b10000 U$
b1 7%
b11100000000000000000000000000000111000011000000000000001101000 ?%
b11100000000000000000000000000000111000011000000000000001101000 I$
b11100000000000000000000000000000111000011000000000000001101000 ;%
b1000 g$
14%
b1000 3%
18%
1D$
#2
08%
0D$
#3
18
19
0o
0q
0u
0z
b100 R$
b100 Q$
b11000 S$
b11000 T$
b10000 !
b10000 "
b10 G$
b10 9%
b11000 U$
b100010000000000000000000000001000111000011000000000000001100101 E$
b10000 g$
b10000 3%
b10 5%
b10 ,%
b100010000000000000000000000001000111000011000000000000001100101 ?%
b100010000000000000000000000001000111000011000000000000001100101 I$
b100010000000000000000000000001000111000011000000000000001100101 ;%
b10 7%
06"
05"
b0 -#
0<"
b0 }"
0C"
b0 ~"
0["
0t"
0+#
b0 f$
0n
0!#
b0 e$
1%"
1s
1x
b0 ##
b10000 ~
b10000 !"
0)
b0 :
0("
b0 7"
b0 z"
b0 {"
b0 4"
b0 &#
b0 %#
b0 '
b0 &"
18%
1D$
#4
08%
0D$
#5
18
19
0o
0q
0u
0z
b110 R$
b110 Q$
b100000 S$
b100000 T$
b100010000000000000000000000001000111000011000000000000001101100 E$
b11 G$
b11 9%
b100000 U$
b11 7%
b100010000000000000000000000001000111000011000000000000001101100 ?%
b100010000000000000000000000001000111000011000000000000001101100 I$
b100010000000000000000000000001000111000011000000000000001101100 ;%
b11000 g$
b11000 3%
b100 5%
b100 ,%
06"
05"
b0 -#
0;"
0B"
0+#
b0 f$
0U"
0n"
0(#
0]$
b0 V$
0'#
0\$
b0 W$
b0 *#
b0 Y$
b0 B%
0!#
b0 e$
0=
0B
1_
1`
1]
1^
1K
1[
1\
1Y
1Z
1K"
1c"
b0 X
03
1%"
b11000 !
b11000 "
1s
1x
b0 ##
b11000 ~
b11000 !"
b0 :
b0 }
b0 |
0("
b0 7"
b0 z"
b0 {"
b0 4"
b0 &#
b0 %#
b0 '
b0 &"
18%
1D$
#6
08%
0D$
#7
18
19
0o
0q
0u
0z
b1000 R$
b1000 Q$
b101000 S$
b101000 T$
b100 G$
b100 9%
b101000 U$
b100000 g$
b100000 3%
b110 5%
b110 ,%
b100 7%
06"
05"
b0 -#
0;"
0B"
0+#
b0 f$
0U"
0n"
0(#
0]$
b0 V$
0'#
0\$
b0 W$
b0 *#
b0 Y$
b0 B%
0!#
b0 e$
0=
0B
1_
1`
1]
1^
1K
1[
1\
1Y
1Z
1K"
1c"
b0 X
03
1%"
b100000 !
b100000 "
1s
1x
b0 ##
b100000 ~
b100000 !"
b0 :
b0 }
b0 |
0("
b0 7"
b0 z"
b0 {"
b0 4"
b0 &#
b0 %#
b0 '
b0 &"
18%
1D$
#8
08%
0D$
#9
18
19
0o
0q
0u
0z
b1010 R$
b1010 Q$
b110000 S$
b110000 T$
b100010000000000000000000000001000111000011000000000000001101111 E$
b101 G$
b101 9%
b110000 U$
b101 7%
b100010000000000000000000000001000111000011000000000000001101111 ?%
b100010000000000000000000000001000111000011000000000000001101111 I$
b100010000000000000000000000001000111000011000000000000001101111 ;%
b101000 g$
b101000 3%
b1000 5%
b1000 ,%
06"
05"
b0 -#
0;"
0B"
0+#
b0 f$
0U"
0n"
0(#
0]$
b0 V$
0'#
0\$
b0 W$
b0 *#
b0 Y$
b0 B%
0!#
b0 e$
0=
0B
1_
1`
1]
1^
1K
1[
1\
1Y
1Z
1K"
1c"
b0 X
03
1%"
b101000 !
b101000 "
1s
1x
b0 ##
b101000 ~
b101000 !"
b0 :
b0 }
b0 |
0("
b0 7"
b0 z"
b0 {"
b0 4"
b0 &#
b0 %#
b0 '
b0 &"
18%
1D$
#10
08%
0D$
#11
18
19
0o
0q
0u
0z
b1100 R$
b1100 Q$
b111000 S$
b111000 T$
b110 G$
b110 9%
b111000 U$
b100010000000000000000000000001000111000000000000000000001100100 E$
b110000 g$
b110000 3%
b1010 5%
b1010 ,%
b100010000000000000000000000001000111000000000000000000001100100 ?%
b100010000000000000000000000001000111000000000000000000001100100 I$
b100010000000000000000000000001000111000000000000000000001100100 ;%
b110 7%
06"
05"
b0 -#
0;"
0B"
0+#
b0 f$
0U"
0n"
0(#
0]$
b0 V$
0'#
0\$
b0 W$
b0 *#
b0 Y$
b0 B%
0!#
b0 e$
0=
0B
1_
1`
1]
1^
1K
1[
1\
1Y
1Z
1K"
1c"
b0 X
03
1%"
b110000 !
b110000 "
1s
1x
b0 ##
b110000 ~
b110000 !"
b0 :
b0 }
b0 |
0("
b0 7"
b0 z"
b0 {"
b0 4"
b0 &#
b0 %#
b0 '
b0 &"
18%
1D$
#12
08%
0D$
#13
b1110 R$
b1110 Q$
b1000000 S$
b1000000 T$
b111110000000011000000110111100000111000000000000000000000000010 E$
b111 G$
b111 9%
b1000000 U$
b111 7%
b111110000000011000000110111100000111000000000000000000000000010 ?%
b111110000000011000000110111100000111000000000000000000000000010 I$
b111110000000011000000110111100000111000000000000000000000000010 ;%
b111000 g$
b111000 3%
b1100 5%
b1100 ,%
06"
05"
18
19
0o
0q
0;"
0B"
0u
0z
0+#
b0 f$
0U"
0n"
0(#
0]$
b0 V$
0'#
0\$
b0 W$
b0 *#
b0 Y$
b0 B%
0!#
b0 e$
0=
0B
1_
1`
1]
1^
1K
1[
1\
1Y
1Z
1K"
1c"
b0 X
03
b111000 !
b111000 "
b111000 ~
b111000 !"
b0 :
b0 }
b0 |
0("
b0 7"
b0 4"
b0 &#
b0 %#
b0 '
b0 &"
18%
1D$
#14
08%
0D$
#15
18
0C"
b0 ~"
0o
19
0t"
0u
0q
b10000 R$
0z
b10000 Q$
b1001000 S$
b1001000 T$
b1000 G$
b1000 9%
b1001000 U$
b100010000000000000000000000001011101000011000000000000000000000 E$
b1000000 g$
b1000000 3%
b1110 5%
b1110 ,%
b100010000000000000000000000001011101000011000000000000000000000 ?%
b100010000000000000000000000001011101000011000000000000000000000 I$
b100010000000000000000000000001011101000011000000000000000000000 ;%
b1000 7%
06"
05"
b0 .#
0U"
0n"
0(#
0]$
0<"
b0 }"
0=
0;"
0B"
0["
0+#
b0 f$
0V"
0o"
b0 V$
0'#
0\$
b0 W$
0n
0!#
b0 e$
0B
1L"
1d"
1s
1t
b0 r
02
b1000000 !
b1000000 "
b1000000 ~
b1000000 !"
b0 :
b0 ;
b0 w
1I"
1e"
1x
1y
b0 5
b0 }
b0 |
b0 k
b0 |"
0("
b0 7"
b0 &#
b0 %#
b0 '
b0 &"
18%
1D$
#16
08%
0D$
#17
18
19
0o
0q
0u
0z
b10010 R$
b1010000 T$
b100010000000000000000000000001000111000000000000000000000000001 E$
b1001000 !"
b1001 G$
b1001 9%
b1010000 U$
b1001 7%
b100010000000000000000000000001000111000000000000000000000000001 ?%
b100010000000000000000000000001000111000000000000000000000000001 I$
b100010000000000000000000000001000111000000000000000000000000001 ;%
b1001000 g$
b1001000 3%
b10000 5%
b10000 ,%
05"
b10010 Q$
b1010000 S$
06"
1A$
b0 -#
0;"
0B"
1B$
0U"
0n"
0(#
0]$
b0 V$
0'#
0\$
b0 W$
b0 *#
b0 Y$
b0 B%
0:"
0+#
b0 f$
0=
0B
1_
1`
1]
1^
1K
1[
1\
1Y
1Z
1K"
1c"
b0 X
0!#
b0 e$
03
1%"
b1001000 !
b1001000 "
0-"
1s
1x
b0 ##
b1001000 ~
b0 :
b0 }
b0 |
b0 7"
b0 z"
b0 {"
b0 '
b0 &"
18%
1D$
#18
08%
0D$
