hello.vcd
$date
	Sun May  8 14:55:10 2016
$end
$version
	Icarus Verilog
$end
$timescale
	1s
$end
$scope module main $end
$var wire 64 ! D0bTarget [0:63] $end
$var wire 64 " D0bcTarget [0:63] $end
$var wire 64 # D0bclrTarget [0:63] $end
$var wire 64 $ D0branchTarget [0:63] $end
$var wire 1 % D0condOk $end
$var wire 1 & D0ctrOk $end
$var wire 32 ' D0inst [0:31] $end
$var wire 1 ( D0isAdd $end
$var wire 1 ) D0isAddi $end
$var wire 1 * D0isB $end
$var wire 1 + D0isBc $end
$var wire 1 , D0isBclr $end
$var wire 1 - D0isBranching $end
$var wire 1 . D0isLd $end
$var wire 1 / D0isLdu $end
$var wire 1 0 D0isMTCrf $end
$var wire 1 1 D0isMTSpr $end
$var wire 1 2 D0isOr $end
$var wire 1 3 D0isSc $end
$var wire 1 4 D0isStd $end
$var wire 8 5 D0lev [0:7] $end
$var wire 1 6 D0noRead0 $end
$var wire 1 7 D0noRead1 $end
$var wire 1 8 D0noWrite0 $end
$var wire 1 9 D0noWrite1 $end
$var wire 6 : D0opcode [0:5] $end
$var wire 5 ; D0ra [0:4] $end
$var wire 5 < D0rb [0:4] $end
$var wire 1 = D0read0 $end
$var wire 1 > D0read0WBread $end
$var wire 1 ? D0read0WBwrite $end
$var wire 1 @ D0read0Xread $end
$var wire 1 A D0read0Xwrite $end
$var wire 1 B D0read1 $end
$var wire 1 C D0read1WBread $end
$var wire 1 D D0read1WBwrite $end
$var wire 1 E D0read1Xread $end
$var wire 1 F D0read1Xwrite $end
$var wire 5 G D0readA [0:4] $end
$var wire 1 H D0readAEQWBreadA $end
$var wire 1 I D0readAEQWBreadB $end
$var wire 1 J D0readAEQWBwriteA $end
$var wire 1 K D0readAEQWBwriteB $end
$var wire 1 L D0readAEQXreadA $end
$var wire 1 M D0readAEQXreadB $end
$var wire 1 N D0readAEQXwriteA $end
$var wire 1 O D0readAEQXwriteB $end
$var wire 1 P D0readARWBreadA $end
$var wire 1 Q D0readARWBreadB $end
$var wire 1 R D0readARXreadA $end
$var wire 1 S D0readARXreadB $end
$var wire 1 T D0readAUWBwriteA $end
$var wire 1 U D0readAUWBwriteB $end
$var wire 1 V D0readAUXwriteA $end
$var wire 1 W D0readAUXwriteB $end
$var wire 5 X D0readB [0:4] $end
$var wire 1 Y D0readBEQWBreadA $end
$var wire 1 Z D0readBEQWBreadB $end
$var wire 1 [ D0readBEQWBwriteA $end
$var wire 1 \ D0readBEQWBwriteB $end
$var wire 1 ] D0readBEQXreadA $end
$var wire 1 ^ D0readBEQXreadB $end
$var wire 1 _ D0readBEQXwriteA $end
$var wire 1 ` D0readBEQXwriteB $end
$var wire 1 a D0readBRWBreadA $end
$var wire 1 b D0readBRWBreadB $end
$var wire 1 c D0readBRXreadA $end
$var wire 1 d D0readBRXreadB $end
$var wire 1 e D0readBUWBwriteA $end
$var wire 1 f D0readBUWBwriteB $end
$var wire 1 g D0readBUXwriteA $end
$var wire 1 h D0readBUXwriteB $end
$var wire 5 i D0rs [0:4] $end
$var wire 5 j D0rt [0:4] $end
$var wire 10 k D0spr [0:9] $end
$var wire 4 l D0vaState [0:3] $end
$var wire 4 m D0vbState [0:3] $end
$var wire 1 n D0write0 $end
$var wire 1 o D0write0D1write $end
$var wire 1 p D0write1 $end
$var wire 1 q D0write1D1write $end
$var wire 5 r D0writeA [0:4] $end
$var wire 1 s D0writeAEQD1writeA $end
$var wire 1 t D0writeAEQD1writeB $end
$var wire 1 u D0writeAUD1writeA $end
$var wire 1 v D0writeAUD1writeB $end
$var wire 5 w D0writeB [0:4] $end
$var wire 1 x D0writeBEQD1writeA $end
$var wire 1 y D0writeBEQD1writeB $end
$var wire 1 z D0writeBUD1writeA $end
$var wire 1 { D0writeBUD1writeB $end
$var wire 10 | D0xop10 [0:9] $end
$var wire 9 } D0xop9 [0:8] $end
$var wire 64 ~ D1bTarget [0:63] $end
$var wire 64 !" D1bcTarget [0:63] $end
$var wire 64 "" D1bclrTarget [0:63] $end
$var wire 64 #" D1branchTarget [0:63] $end
$var wire 1 $" D1condOk $end
$var wire 1 %" D1ctrOk $end
$var wire 32 &" D1inst [0:31] $end
$var wire 1 '" D1isAdd $end
$var wire 1 (" D1isAddi $end
$var wire 1 )" D1isB $end
$var wire 1 *" D1isBc $end
$var wire 1 +" D1isBclr $end
$var wire 1 ," D1isBranching $end
$var wire 1 -" D1isLd $end
$var wire 1 ." D1isLdu $end
$var wire 1 /" D1isMTCrf $end
$var wire 1 0" D1isMTSpr $end
$var wire 1 1" D1isOr $end
$var wire 1 2" D1isSc $end
$var wire 1 3" D1isStd $end
$var wire 8 4" D1lev [0:7] $end
$var wire 1 5" D1noRead0 $end
$var wire 1 6" D1noRead1 $end
$var wire 6 7" D1opcode [0:5] $end
$var wire 5 8" D1ra [0:4] $end
$var wire 5 9" D1rb [0:4] $end
$var wire 1 :" D1read0 $end
$var wire 1 ;" D1read0D0read $end
$var wire 1 <" D1read0D0write $end
$var wire 1 =" D1read0WBread $end
$var wire 1 >" D1read0WBwrite $end
$var wire 1 ?" D1read0Xread $end
$var wire 1 @" D1read0Xwrite $end
$var wire 1 A" D1read1 $end
$var wire 1 B" D1read1D0read $end
$var wire 1 C" D1read1D0write $end
$var wire 1 D" D1read1WBread $end
$var wire 1 E" D1read1WBwrite $end
$var wire 1 F" D1read1Xread $end
$var wire 1 G" D1read1Xwrite $end
$var wire 5 H" D1readA [0:4] $end
$var wire 1 I" D1readAEQD0QXwriteB $end
$var wire 1 J" D1readAEQD0readA $end
$var wire 1 K" D1readAEQD0readB $end
$var wire 1 L" D1readAEQD0writeA $end
$var wire 1 M" D1readAEQWBreadA $end
$var wire 1 N" D1readAEQWBreadB $end
$var wire 1 O" D1readAEQWBwriteA $end
$var wire 1 P" D1readAEQWBwriteB $end
$var wire 1 Q" D1readAEQXreadA $end
$var wire 1 R" D1readAEQXreadB $end
$var wire 1 S" D1readAEQXwriteA $end
$var wire 1 T" D1readAEQXwriteB $end
$var wire 1 U" D1readARD0readA $end
$var wire 1 V" D1readARD0readB $end
$var wire 1 W" D1readARWBreadA $end
$var wire 1 X" D1readARWBreadB $end
$var wire 1 Y" D1readARXreadA $end
$var wire 1 Z" D1readARXreadB $end
$var wire 1 [" D1readAUD0writeA $end
$var wire 1 \" D1readAUD0writeB $end
$var wire 1 ]" D1readAUWBwriteA $end
$var wire 1 ^" D1readAUWBwriteB $end
$var wire 1 _" D1readAUXwriteA $end
$var wire 1 `" D1readAUXwriteB $end
$var wire 5 a" D1readB [0:4] $end
$var wire 1 b" D1readBEQD0readA $end
$var wire 1 c" D1readBEQD0readB $end
$var wire 1 d" D1readBEQD0writeA $end
$var wire 1 e" D1readBEQD0writeB $end
$var wire 1 f" D1readBEQWBreadA $end
$var wire 1 g" D1readBEQWBreadB $end
$var wire 1 h" D1readBEQWBwriteA $end
$var wire 1 i" D1readBEQWBwriteB $end
$var wire 1 j" D1readBEQXreadA $end
$var wire 1 k" D1readBEQXreadB $end
$var wire 1 l" D1readBEQXwriteA $end
$var wire 1 m" D1readBEQXwriteB $end
$var wire 1 n" D1readBRD0readA $end
$var wire 1 o" D1readBRD0readB $end
$var wire 1 p" D1readBRWBreadA $end
$var wire 1 q" D1readBRWBreadB $end
$var wire 1 r" D1readBRXreadA $end
$var wire 1 s" D1readBRXreadB $end
$var wire 1 t" D1readBUD0writeA $end
$var wire 1 u" D1readBUD0writeB $end
$var wire 1 v" D1readBUWBwriteA $end
$var wire 1 w" D1readBUWBwriteB $end
$var wire 1 x" D1readBUXwriteA $end
$var wire 1 y" D1readBUXwriteB $end
$var wire 5 z" D1rs [0:4] $end
$var wire 5 {" D1rt [0:4] $end
$var wire 10 |" D1spr [0:9] $end
$var wire 4 }" D1vaState [0:3] $end
$var wire 4 ~" D1vbState [0:3] $end
$var wire 1 !# D1write0 $end
$var wire 1 "# D1write1 $end
$var wire 5 ## D1writeA [0:4] $end
$var wire 5 $# D1writeB [0:4] $end
$var wire 10 %# D1xop10 [0:9] $end
$var wire 9 &# D1xop9 [0:8] $end
$var wire 1 '# Dread0 $end
$var wire 1 (# Dread1 $end
$var wire 5 )# DreadA [0:4] $end
$var wire 5 *# DreadB [0:4] $end
$var wire 1 +# Dwrite0 $end
$var wire 1 ,# Dwrite1 $end
$var wire 5 -# DwriteA [0:4] $end
$var wire 5 .# DwriteB [0:4] $end
$var wire 64 /# WB0ds [0:63] $end
$var wire 1 0# WB0isAdd $end
$var wire 1 1# WB0isAddi $end
$var wire 1 2# WB0isLd $end
$var wire 1 3# WB0isLdu $end
$var wire 1 4# WB0isMFSpr $end
$var wire 1 5# WB0isOr $end
$var wire 1 6# WB0isSc $end
$var wire 1 7# WB0isStd $end
$var wire 8 8# WB0lev [0:7] $end
$var wire 6 9# WB0opcode [0:5] $end
$var wire 5 :# WB0ra [0:4] $end
$var wire 5 ;# WB0rt [0:4] $end
$var wire 64 <# WB0si [0:63] $end
$var wire 10 =# WB0spr [0:9] $end
$var wire 1 ># WB0write0 $end
$var wire 1 ?# WB0write1 $end
$var wire 5 @# WB0writeA [0:4] $end
$var wire 5 A# WB0writeB [0:4] $end
$var wire 64 B# WB0writeDataA [0:63] $end
$var wire 64 C# WB0writeDataB [0:63] $end
$var wire 10 D# WB0xop10 [0:9] $end
$var wire 9 E# WB0xop9 [0:8] $end
$var wire 64 F# WB1ds [0:63] $end
$var wire 1 G# WB1isAdd $end
$var wire 1 H# WB1isAddi $end
$var wire 1 I# WB1isLd $end
$var wire 1 J# WB1isLdu $end
$var wire 1 K# WB1isMFSpr $end
$var wire 1 L# WB1isOr $end
$var wire 1 M# WB1isSc $end
$var wire 1 N# WB1isStd $end
$var wire 8 O# WB1lev [0:7] $end
$var wire 6 P# WB1opcode [0:5] $end
$var wire 5 Q# WB1ra [0:4] $end
$var wire 5 R# WB1rt [0:4] $end
$var wire 64 S# WB1si [0:63] $end
$var wire 10 T# WB1spr [0:9] $end
$var wire 64 U# WB1va [0:63] $end
$var wire 64 V# WB1vb [0:63] $end
$var wire 1 W# WB1write0 $end
$var wire 1 X# WB1write1 $end
$var wire 5 Y# WB1writeA [0:4] $end
$var wire 5 Z# WB1writeB [0:4] $end
$var wire 64 [# WB1writeDataA [0:63] $end
$var wire 64 \# WB1writeDataB [0:63] $end
$var wire 10 ]# WB1xop10 [0:9] $end
$var wire 9 ^# WB1xop9 [0:8] $end
$var wire 64 _# WBwriteDataA [0:63] $end
$var wire 64 `# WBwriteDataB [0:63] $end
$var wire 8 a# X0crm [0:7] $end
$var wire 64 b# X0ds [0:63] $end
$var wire 64 c# X0ea [0:63] $end
$var wire 1 d# X0isAdd $end
$var wire 1 e# X0isAddi $end
$var wire 1 f# X0isLd $end
$var wire 1 g# X0isLdu $end
$var wire 1 h# X0isMFSpr $end
$var wire 1 i# X0isMTCrf $end
$var wire 1 j# X0isMTSpr $end
$var wire 1 k# X0isOr $end
$var wire 1 l# X0isSc $end
$var wire 1 m# X0isStd $end
$var wire 8 n# X0lev [0:7] $end
$var wire 1 o# X0oe $end
$var wire 6 p# X0opcode [0:5] $end
$var wire 5 q# X0ra [0:4] $end
$var wire 5 r# X0rb [0:4] $end
$var wire 1 s# X0rc $end
$var wire 64 t# X0readva [0:63] $end
$var wire 64 u# X0readvb [0:63] $end
$var wire 5 v# X0regA [0:4] $end
$var wire 1 w# X0regAEQXA $end
$var wire 1 x# X0regAEQXB $end
$var wire 1 y# X0regARXA $end
$var wire 1 z# X0regARXB $end
$var wire 5 {# X0regB [0:4] $end
$var wire 1 |# X0regBEQXA $end
$var wire 1 }# X0regBEQXB $end
$var wire 1 ~# X0regBRXA $end
$var wire 1 !$ X0regBRXB $end
$var wire 64 "$ X0result [0:63] $end
$var wire 5 #$ X0rs [0:4] $end
$var wire 5 $$ X0rt [0:4] $end
$var wire 10 %$ X0spr [0:9] $end
$var wire 64 &$ X0va [0:63] $end
$var wire 64 '$ X0vb [0:63] $end
$var wire 10 ($ X0xop10 [0:9] $end
$var wire 9 )$ X0xop9 [0:8] $end
$var wire 8 *$ X1crm [0:7] $end
$var wire 64 +$ X1ds [0:63] $end
$var wire 64 ,$ X1ea [0:63] $end
$var wire 1 -$ X1isAdd $end
$var wire 1 .$ X1isAddi $end
$var wire 1 /$ X1isLd $end
$var wire 1 0$ X1isLdu $end
$var wire 1 1$ X1isMFSpr $end
$var wire 1 2$ X1isMTCrf $end
$var wire 1 3$ X1isMTSpr $end
$var wire 1 4$ X1isOr $end
$var wire 1 5$ X1isSc $end
$var wire 1 6$ X1isStd $end
$var wire 8 7$ X1lev [0:7] $end
$var wire 1 8$ X1oe $end
$var wire 6 9$ X1opcode [0:5] $end
$var wire 5 :$ X1ra [0:4] $end
$var wire 5 ;$ X1rb [0:4] $end
$var wire 1 <$ X1rc $end
$var wire 64 =$ X1readva [0:63] $end
$var wire 64 >$ X1readvb [0:63] $end
$var wire 5 ?$ X1regA [0:4] $end
$var wire 1 @$ X1regAEQXA $end
$var wire 1 A$ X1regAEQXB $end
$var wire 1 B$ X1regARXA $end
$var wire 1 C$ X1regARXB $end
$var wire 5 D$ X1regB [0:4] $end
$var wire 1 E$ X1regBEQXA $end
$var wire 1 F$ X1regBEQXB $end
$var wire 1 G$ X1regBRXA $end
$var wire 1 H$ X1regBRXB $end
$var wire 64 I$ X1result [0:63] $end
$var wire 5 J$ X1rs [0:4] $end
$var wire 5 K$ X1rt [0:4] $end
$var wire 10 L$ X1spr [0:9] $end
$var wire 64 M$ X1va [0:63] $end
$var wire 64 N$ X1vb [0:63] $end
$var wire 10 O$ X1xop10 [0:9] $end
$var wire 9 P$ X1xop9 [0:8] $end
$var wire 1 Q$ canParallel $end
$var wire 1 R$ canParallelReadRegs $end
$var wire 1 S$ canParallelWriteRegs $end
$var wire 1 T$ clk $end
$var wire 64 U$ fetch [0:63] $end
$var wire 1 V$ halt $end
$var wire 61 W$ memReadAddr0 [0:60] $end
$var wire 61 X$ memReadAddr1 [0:60] $end
$var wire 64 Y$ memReadData0 [0:63] $end
$var wire 64 Z$ memReadData1 [0:63] $end
$var wire 1 [$ memReadEn0 $end
$var wire 1 \$ memReadEn1 $end
$var wire 61 ]$ memWriteAddr [0:60] $end
$var wire 64 ^$ memWriteData [0:63] $end
$var wire 1 _$ memWriteEn $end
$var wire 4 `$ newCr [0:3] $end
$var wire 6 a$ nextHead [0:5] $end
$var wire 6 b$ nextTail [0:5] $end
$var wire 64 c$ nextTruePc [0:63] $end
$var wire 64 d$ nextpc [0:63] $end
$var wire 64 e$ pcPlus8 [0:63] $end
$var wire 3 f$ readNum [0:2] $end
$var wire 2 g$ readNumParallel [0:1] $end
$var wire 5 h$ regReadAddr0 [0:4] $end
$var wire 5 i$ regReadAddr1 [0:4] $end
$var wire 64 j$ regReadData0 [0:63] $end
$var wire 64 k$ regReadData1 [0:63] $end
$var wire 1 l$ regReadEn0 $end
$var wire 1 m$ regReadEn1 $end
$var wire 5 n$ regWriteAddr0 [0:4] $end
$var wire 5 o$ regWriteAddr1 [0:4] $end
$var wire 64 p$ regWriteData0 [0:63] $end
$var wire 64 q$ regWriteData1 [0:63] $end
$var wire 1 r$ regWriteEn0 $end
$var wire 1 s$ regWriteEn1 $end
$var wire 1 t$ stopFetch $end
$var wire 3 u$ writeNum [0:2] $end
$var wire 2 v$ writeNumParallel [0:1] $end
$var reg 64 w$ TruePc [0:63] $end
$var reg 32 x$ WB0inst [0:31] $end
$var reg 64 y$ WB0va [0:63] $end
$var reg 4 z$ WB0vaState [0:3] $end
$var reg 64 {$ WB0vb [0:63] $end
$var reg 4 |$ WB0vbState [0:3] $end
$var reg 32 }$ WB1inst [0:31] $end
$var reg 4 ~$ WB1vaState [0:3] $end
$var reg 64 !% WB1vaUnchecked [0:63] $end
$var reg 4 "% WB1vbState [0:3] $end
$var reg 64 #% WB1vbUnchecked [0:63] $end
$var reg 1 $% WBread0 $end
$var reg 1 %% WBread1 $end
$var reg 5 &% WBreadA [0:4] $end
$var reg 5 '% WBreadB [0:4] $end
$var reg 64 (% WBva [0:63] $end
$var reg 64 )% WBvb [0:63] $end
$var reg 1 *% WBwrite0 $end
$var reg 1 +% WBwrite1 $end
$var reg 5 ,% WBwriteA [0:4] $end
$var reg 5 -% WBwriteB [0:4] $end
$var reg 32 .% X0inst [0:31] $end
$var reg 4 /% X0vaState [0:3] $end
$var reg 4 0% X0vbState [0:3] $end
$var reg 32 1% X1inst [0:31] $end
$var reg 4 2% X1vaState [0:3] $end
$var reg 4 3% X1vbState [0:3] $end
$var reg 1 4% Xread0 $end
$var reg 1 5% Xread1 $end
$var reg 5 6% XreadA [0:4] $end
$var reg 5 7% XreadB [0:4] $end
$var reg 1 8% Xwrite0 $end
$var reg 1 9% Xwrite1 $end
$var reg 5 :% XwriteA [0:4] $end
$var reg 5 ;% XwriteB [0:4] $end
$var reg 32 <% cr [0:31] $end
$var reg 64 =% ctr [0:63] $end
$var reg 6 >% head [0:5] $end
$var integer 32 ?% i [31:0] $end
$var reg 64 @% lr [0:63] $end
$var reg 64 A% oldWBva [0:63] $end
$var reg 64 B% oldWBvb [0:63] $end
$var reg 64 C% oldWBwriteDataA [0:63] $end
$var reg 64 D% oldWBwriteDataB [0:63] $end
$var reg 64 E% pc [0:63] $end
$var reg 1 F% state $end
$var reg 6 G% tail [0:5] $end
$var reg 32 H% xer [0:31] $end
$scope module clock0 $end
$var wire 1 T$ clk $end
$var wire 1 V$ halt $end
$var reg 16 I% cycles [15:0] $end
$var reg 1 J% theClock $end
$upscope $end
$scope module mem0 $end
$var wire 1 T$ clk $end
$var wire 61 K% readAddr0 [63:3] $end
$var wire 61 L% readAddr1 [63:3] $end
$var wire 64 M% readData0 [63:0] $end
$var wire 64 N% readData1 [63:0] $end
$var wire 1 [$ readEn0 $end
$var wire 1 \$ readEn1 $end
$var wire 61 O% writeAddr [63:3] $end
$var wire 64 P% writeData [63:0] $end
$var wire 1 _$ writeEn $end
$var reg 64 Q% d0 [63:0] $end
$var reg 64 R% d1 [63:0] $end
$upscope $end
$scope module gprs $end
$var wire 1 T$ clk $end
$var wire 5 S% readAddr0 [4:0] $end
$var wire 5 T% readAddr1 [4:0] $end
$var wire 64 U% readData0 [63:0] $end
$var wire 64 V% readData1 [63:0] $end
$var wire 1 l$ readEn0 $end
$var wire 1 m$ readEn1 $end
$var wire 5 W% writeAddr0 [4:0] $end
$var wire 5 X% writeAddr1 [4:0] $end
$var wire 64 Y% writeData0 [63:0] $end
$var wire 64 Z% writeData1 [63:0] $end
$var wire 1 r$ writeEn0 $end
$var wire 1 s$ writeEn1 $end
$var reg 64 [% d0 [63:0] $end
$var reg 64 \% d1 [63:0] $end
$upscope $end
$upscope $end
$enddefinitions $end
#0
$dumpvars
bx \%
bx [%
b0 Z%
b0 Y%
b0 X%
b0 W%
bx V%
bx U%
b0 T%
b0 S%
bx R%
bx Q%
bz P%
b0 O%
bx N%
bx M%
b0 L%
b0 K%
0J%
b0 I%
b0 H%
b0 G%
0F%
b0 E%
b0 D%
b0 C%
b0 B%
b0 A%
b0 @%
b100000 ?%
b0 >%
b0 =%
b0 <%
b0 ;%
b0 :%
09%
08%
b0 7%
b0 6%
05%
04%
b0 3%
b0 2%
b0 1%
b0 0%
b0 /%
b0 .%
b0 -%
b0 ,%
0+%
0*%
b0 )%
b0 (%
b0 '%
b0 &%
0%%
0$%
b0 #%
b0 "%
b0 !%
b0 ~$
b0 }$
b0 |$
b0 {$
b0 z$
b0 y$
b0 x$
b0 w$
b0 v$
b0 u$
0t$
0s$
0r$
b0 q$
b0 p$
b0 o$
b0 n$
0m$
0l$
bx k$
bx j$
b0 i$
b0 h$
b0 g$
b0 f$
b1000 e$
b1000 d$
b1000 c$
b0 b$
b0 a$
bz `$
0_$
bz ^$
b0 ]$
0\$
1[$
bx Z$
bx Y$
b0 X$
b0 W$
0V$
b0 U$
0T$
1S$
1R$
1Q$
b0 P$
b0 O$
b0 N$
b0 M$
b0 L$
b0 K$
b0 J$
b0 I$
0H$
0G$
1F$
1E$
b0 D$
0C$
0B$
1A$
1@$
b0 ?$
b0 >$
b0 =$
0<$
b0 ;$
b0 :$
b0 9$
08$
b0 7$
06$
05$
04$
03$
02$
01$
00$
0/$
0.$
0-$
b0 ,$
b0 +$
b0 *$
b0 )$
b0 ($
b0 '$
b0 &$
b0 %$
b0 $$
b0 #$
b0 "$
0!$
0~#
x}#
x|#
bx {#
0z#
0y#
1x#
1w#
b0 v#
b0 u#
b0 t#
0s#
b0 r#
b0 q#
b0 p#
0o#
b0 n#
0m#
0l#
0k#
0j#
0i#
0h#
0g#
0f#
0e#
0d#
b0 c#
b0 b#
b0 a#
b0 `#
b0 _#
b0 ^#
b0 ]#
b0 \#
b0 [#
b0 Z#
b0 Y#
0X#
0W#
b0 V#
b0 U#
b0 T#
b0 S#
b0 R#
b0 Q#
b0 P#
b0 O#
0N#
0M#
0L#
0K#
0J#
0I#
0H#
0G#
b0 F#
b0 E#
b0 D#
b0 C#
b0 B#
b0 A#
b0 @#
0?#
0>#
b0 =#
b0 <#
b0 ;#
b0 :#
b0 9#
b0 8#
07#
06#
05#
04#
03#
02#
01#
00#
b0 /#
b0 .#
b0 -#
0,#
0+#
b0 *#
b0 )#
0(#
0'#
b0 &#
b0 %#
b0 $#
b0 ##
0"#
0!#
b0 ~"
b0 }"
b0 |"
b0 {"
b0 z"
0y"
0x"
0w"
0v"
0u"
0t"
0s"
0r"
0q"
0p"
0o"
0n"
1m"
1l"
1k"
1j"
1i"
1h"
1g"
1f"
1e"
1d"
1c"
1b"
b0 a"
0`"
0_"
0^"
0]"
0\"
0["
0Z"
0Y"
0X"
0W"
0V"
0U"
1T"
1S"
1R"
1Q"
1P"
1O"
1N"
1M"
1L"
1K"
1J"
1I"
b0 H"
0G"
0F"
0E"
0D"
0C"
0B"
0A"
0@"
0?"
0>"
0="
0<"
0;"
0:"
b0 9"
b0 8"
b0 7"
06"
05"
b0 4"
03"
02"
01"
00"
0/"
0."
0-"
0,"
0+"
0*"
0)"
0("
0'"
b0 &"
1%"
x$"
b0 #"
b0 ""
b0 !"
b0 ~
b0 }
b0 |
0{
0z
1y
1x
b0 w
0v
0u
1t
1s
b0 r
0q
0p
0o
0n
b0 m
b0 l
b0 k
b0 j
b0 i
0h
0g
0f
0e
0d
0c
0b
0a
1`
1_
1^
1]
1\
1[
1Z
1Y
b0 X
0W
0V
0U
0T
0S
0R
0Q
0P
1O
1N
1M
1L
1K
1J
1I
1H
b0 G
0F
0E
0D
0C
0B
0A
0@
0?
0>
0=
b0 <
b0 ;
b0 :
19
18
07
06
b0 5
04
03
02
01
00
0/
0.
0-
0,
0+
0*
0)
0(
b0 '
1&
x%
b0 $
b0 #
b0 "
b0 !
$end
#1
b10 b$
b10 a$
b10000 c$
b11100000000000000000000000000000111000011000000000000001101000 U$
b10000 d$
b1000 !
b1000 "
b1000 ~
b1000 !"
b1 W$
b1 K%
b10000 e$
b1 I%
b11100000000000000000000000000000111000011000000000000001101000 Q%
b11100000000000000000000000000000111000011000000000000001101000 Y$
b11100000000000000000000000000000111000011000000000000001101000 M%
b0 &%
1H
1Y
1M"
1f"
b0 '%
1I
1Z
1N"
1g"
b1000 w$
1F%
b1000 E%
1J%
1T$
#2
0J%
0T$
#3
18
19
0o
0q
0u
0z
b100 b$
b100 a$
b11000 c$
b11000 d$
b10000 !
b10000 "
b10 W$
b10 K%
b11000 e$
b100010000000000000000000000001000111000011000000000000001100101 U$
b0 &%
1H
1Y
1M"
1f"
b0 '%
1I
1Z
1N"
1g"
b10000 w$
b10000 E%
b10 G%
b10 >%
b100010000000000000000000000001000111000011000000000000001100101 Q%
b100010000000000000000000000001000111000011000000000000001100101 Y$
b100010000000000000000000000001000111000011000000000000001100101 M%
b10 I%
06"
05"
b0 -#
0<"
b0 }"
0C"
b0 ~"
0["
0t"
0+#
b0 v$
0n
0!#
b0 u$
1%"
1s
1x
b0 ##
b10000 ~
b10000 !"
0)
b0 :
0("
b0 7"
b0 z"
b0 {"
b0 4"
b0 &#
b0 %#
b0 '
b0 &"
1J%
1T$
#4
0J%
0T$
#5
18
19
0o
0q
0u
0z
b110 b$
b110 a$
b100000 c$
b100000 d$
b100010000000000000000000000001000111000011000000000000001101100 U$
b11 W$
b11 K%
b100000 e$
b11 I%
b100010000000000000000000000001000111000011000000000000001101100 Q%
b100010000000000000000000000001000111000011000000000000001101100 Y$
b100010000000000000000000000001000111000011000000000000001101100 M%
b0 &%
1H
1M"
1f"
b0 '%
1I
1N"
1g"
b11000 w$
b11000 E%
b100 G%
b100 >%
06"
05"
b0 -#
0;"
0B"
0+#
b0 v$
0U"
0n"
0(#
0m$
b0 f$
0'#
0l$
b0 g$
b0 *#
b0 i$
b0 T%
0!#
b0 u$
0=
0B
1_
1`
1]
1^
1K
1[
1\
1Y
1Z
1K"
1c"
b0 X
03
1%"
b11000 !
b11000 "
1s
1x
b0 ##
b11000 ~
b11000 !"
b0 :
b0 }
b0 |
0("
b0 7"
b0 z"
b0 {"
b0 4"
b0 &#
b0 %#
b0 '
b0 &"
1J%
1T$
#6
0J%
0T$
#7
18
19
0o
0q
0u
0z
b1000 b$
b1000 a$
b101000 c$
b101000 d$
b100 W$
b100 K%
b101000 e$
b0 &%
1H
1M"
1f"
b0 '%
1I
1N"
1g"
b100000 w$
b100000 E%
b110 G%
b110 >%
b100 I%
06"
05"
b0 -#
0;"
0B"
0+#
b0 v$
0U"
0n"
0(#
0m$
b0 f$
0'#
0l$
b0 g$
b0 *#
b0 i$
b0 T%
0!#
b0 u$
0=
0B
1_
1`
1]
1^
1K
1[
1\
1Y
1Z
1K"
1c"
b0 X
03
1%"
b100000 !
b100000 "
1s
1x
b0 ##
b100000 ~
b100000 !"
b0 :
b0 }
b0 |
0("
b0 7"
b0 z"
b0 {"
b0 4"
b0 &#
b0 %#
b0 '
b0 &"
1J%
1T$
#8
0J%
0T$
#9
18
19
0o
0q
0u
0z
b1010 b$
b1010 a$
b110000 c$
b110000 d$
b100010000000000000000000000001000111000011000000000000001101111 U$
b101 W$
b101 K%
b110000 e$
b101 I%
b100010000000000000000000000001000111000011000000000000001101111 Q%
b100010000000000000000000000001000111000011000000000000001101111 Y$
b100010000000000000000000000001000111000011000000000000001101111 M%
b0 &%
1H
1M"
1f"
b0 '%
1I
1N"
1g"
b101000 w$
b101000 E%
b1000 G%
b1000 >%
06"
05"
b0 -#
0;"
0B"
0+#
b0 v$
0U"
0n"
0(#
0m$
b0 f$
0'#
0l$
b0 g$
b0 *#
b0 i$
b0 T%
0!#
b0 u$
0=
0B
1_
1`
1]
1^
1K
1[
1\
1Y
1Z
1K"
1c"
b0 X
03
1%"
b101000 !
b101000 "
1s
1x
b0 ##
b101000 ~
b101000 !"
b0 :
b0 }
b0 |
0("
b0 7"
b0 z"
b0 {"
b0 4"
b0 &#
b0 %#
b0 '
b0 &"
1J%
1T$
#10
0J%
0T$
#11
18
19
0o
0q
0u
0z
b1100 b$
b1100 a$
b111000 c$
b111000 d$
b110 W$
b110 K%
b111000 e$
b100010000000000000000000000001000111000000000000000000001100100 U$
b0 &%
1H
1M"
1f"
b0 '%
1I
1N"
1g"
b110000 w$
b110000 E%
b1010 G%
b1010 >%
b100010000000000000000000000001000111000000000000000000001100100 Q%
b100010000000000000000000000001000111000000000000000000001100100 Y$
b100010000000000000000000000001000111000000000000000000001100100 M%
b110 I%
06"
05"
b0 -#
0;"
0B"
0+#
b0 v$
0U"
0n"
0(#
0m$
b0 f$
0'#
0l$
b0 g$
b0 *#
b0 i$
b0 T%
0!#
b0 u$
0=
0B
1_
1`
1]
1^
1K
1[
1\
1Y
1Z
1K"
1c"
b0 X
03
1%"
b110000 !
b110000 "
1s
1x
b0 ##
b110000 ~
b110000 !"
b0 :
b0 }
b0 |
0("
b0 7"
b0 z"
b0 {"
b0 4"
b0 &#
b0 %#
b0 '
b0 &"
1J%
1T$
#12
0J%
0T$
#13
b1110 b$
b1110 a$
b1000000 c$
b1000000 d$
b111110000000011000000110111100000111000000000000000000000000010 U$
b111 W$
b111 K%
b1000000 e$
b111 I%
b111110000000011000000110111100000111000000000000000000000000010 Q%
b111110000000011000000110111100000111000000000000000000000000010 Y$
b111110000000011000000110111100000111000000000000000000000000010 M%
b0 &%
1H
1M"
1f"
b0 '%
1I
1N"
1g"
b111000 w$
b111000 E%
b1100 G%
b1100 >%
06"
05"
18
19
0o
0q
0;"
0B"
0u
0z
0+#
b0 v$
0U"
0n"
0(#
0m$
b0 f$
0'#
0l$
b0 g$
b0 *#
b0 i$
b0 T%
0!#
b0 u$
0=
0B
1_
1`
1]
1^
1K
1[
1\
1Y
1Z
1K"
1c"
b0 X
03
b111000 !
b111000 "
b111000 ~
b111000 !"
b0 :
b0 }
b0 |
0("
b0 7"
b0 4"
b0 &#
b0 %#
b0 '
b0 &"
1J%
1T$
#14
0J%
0T$
