hello.vcd
$date
	Sun May  8 16:07:16 2016
$end
$version
	Icarus Verilog
$end
$timescale
	1s
$end
$scope module main $end
$var wire 64 ! D0bTarget [0:63] $end
$var wire 64 " D0bcTarget [0:63] $end
$var wire 64 # D0bclrTarget [0:63] $end
$var wire 64 $ D0branchTarget [0:63] $end
$var wire 1 % D0condOk $end
$var wire 1 & D0ctrOk $end
$var wire 32 ' D0inst [0:31] $end
$var wire 1 ( D0isAdd $end
$var wire 1 ) D0isAddi $end
$var wire 1 * D0isB $end
$var wire 1 + D0isBc $end
$var wire 1 , D0isBclr $end
$var wire 1 - D0isBranching $end
$var wire 1 . D0isLd $end
$var wire 1 / D0isLdu $end
$var wire 1 0 D0isMTCrf $end
$var wire 1 1 D0isMTSpr $end
$var wire 1 2 D0isOr $end
$var wire 1 3 D0isSc $end
$var wire 1 4 D0isStd $end
$var wire 8 5 D0lev [0:7] $end
$var wire 1 6 D0noRead0 $end
$var wire 1 7 D0noRead1 $end
$var wire 1 8 D0noWrite0 $end
$var wire 1 9 D0noWrite1 $end
$var wire 6 : D0opcode [0:5] $end
$var wire 5 ; D0ra [0:4] $end
$var wire 5 < D0rb [0:4] $end
$var wire 1 = D0read0 $end
$var wire 1 > D0read0WBread $end
$var wire 1 ? D0read0WBwrite $end
$var wire 1 @ D0read0Xread $end
$var wire 1 A D0read0Xwrite $end
$var wire 1 B D0read1 $end
$var wire 1 C D0read1WBread $end
$var wire 1 D D0read1WBwrite $end
$var wire 1 E D0read1Xread $end
$var wire 1 F D0read1Xwrite $end
$var wire 5 G D0readA [0:4] $end
$var wire 1 H D0readAEQWBreadA $end
$var wire 1 I D0readAEQWBreadB $end
$var wire 1 J D0readAEQWBwriteA $end
$var wire 1 K D0readAEQWBwriteB $end
$var wire 1 L D0readAEQXreadA $end
$var wire 1 M D0readAEQXreadB $end
$var wire 1 N D0readAEQXwriteA $end
$var wire 1 O D0readAEQXwriteB $end
$var wire 1 P D0readARWBreadA $end
$var wire 1 Q D0readARWBreadB $end
$var wire 1 R D0readARXreadA $end
$var wire 1 S D0readARXreadB $end
$var wire 1 T D0readAUWBwriteA $end
$var wire 1 U D0readAUWBwriteB $end
$var wire 1 V D0readAUXwriteA $end
$var wire 1 W D0readAUXwriteB $end
$var wire 5 X D0readB [0:4] $end
$var wire 1 Y D0readBEQWBreadA $end
$var wire 1 Z D0readBEQWBreadB $end
$var wire 1 [ D0readBEQWBwriteA $end
$var wire 1 \ D0readBEQWBwriteB $end
$var wire 1 ] D0readBEQXreadA $end
$var wire 1 ^ D0readBEQXreadB $end
$var wire 1 _ D0readBEQXwriteA $end
$var wire 1 ` D0readBEQXwriteB $end
$var wire 1 a D0readBRWBreadA $end
$var wire 1 b D0readBRWBreadB $end
$var wire 1 c D0readBRXreadA $end
$var wire 1 d D0readBRXreadB $end
$var wire 1 e D0readBUWBwriteA $end
$var wire 1 f D0readBUWBwriteB $end
$var wire 1 g D0readBUXwriteA $end
$var wire 1 h D0readBUXwriteB $end
$var wire 5 i D0rs [0:4] $end
$var wire 5 j D0rt [0:4] $end
$var wire 10 k D0spr [0:9] $end
$var wire 4 l D0vaState [0:3] $end
$var wire 4 m D0vbState [0:3] $end
$var wire 1 n D0write0 $end
$var wire 1 o D0write0D1write $end
$var wire 1 p D0write1 $end
$var wire 1 q D0write1D1write $end
$var wire 5 r D0writeA [0:4] $end
$var wire 1 s D0writeAEQD1writeA $end
$var wire 1 t D0writeAEQD1writeB $end
$var wire 1 u D0writeAUD1writeA $end
$var wire 1 v D0writeAUD1writeB $end
$var wire 5 w D0writeB [0:4] $end
$var wire 1 x D0writeBEQD1writeA $end
$var wire 1 y D0writeBEQD1writeB $end
$var wire 1 z D0writeBUD1writeA $end
$var wire 1 { D0writeBUD1writeB $end
$var wire 10 | D0xop10 [0:9] $end
$var wire 9 } D0xop9 [0:8] $end
$var wire 64 ~ D1bTarget [0:63] $end
$var wire 64 !" D1bcTarget [0:63] $end
$var wire 64 "" D1bclrTarget [0:63] $end
$var wire 64 #" D1branchTarget [0:63] $end
$var wire 1 $" D1condOk $end
$var wire 1 %" D1ctrOk $end
$var wire 32 &" D1inst [0:31] $end
$var wire 1 '" D1isAdd $end
$var wire 1 (" D1isAddi $end
$var wire 1 )" D1isB $end
$var wire 1 *" D1isBc $end
$var wire 1 +" D1isBclr $end
$var wire 1 ," D1isBranching $end
$var wire 1 -" D1isLd $end
$var wire 1 ." D1isLdu $end
$var wire 1 /" D1isMTCrf $end
$var wire 1 0" D1isMTSpr $end
$var wire 1 1" D1isOr $end
$var wire 1 2" D1isSc $end
$var wire 1 3" D1isStd $end
$var wire 8 4" D1lev [0:7] $end
$var wire 1 5" D1noRead0 $end
$var wire 1 6" D1noRead1 $end
$var wire 6 7" D1opcode [0:5] $end
$var wire 5 8" D1ra [0:4] $end
$var wire 5 9" D1rb [0:4] $end
$var wire 1 :" D1read0 $end
$var wire 1 ;" D1read0D0read $end
$var wire 1 <" D1read0D0write $end
$var wire 1 =" D1read0WBread $end
$var wire 1 >" D1read0WBwrite $end
$var wire 1 ?" D1read0Xread $end
$var wire 1 @" D1read0Xwrite $end
$var wire 1 A" D1read1 $end
$var wire 1 B" D1read1D0read $end
$var wire 1 C" D1read1D0write $end
$var wire 1 D" D1read1WBread $end
$var wire 1 E" D1read1WBwrite $end
$var wire 1 F" D1read1Xread $end
$var wire 1 G" D1read1Xwrite $end
$var wire 5 H" D1readA [0:4] $end
$var wire 1 I" D1readAEQD0QXwriteB $end
$var wire 1 J" D1readAEQD0readA $end
$var wire 1 K" D1readAEQD0readB $end
$var wire 1 L" D1readAEQD0writeA $end
$var wire 1 M" D1readAEQWBreadA $end
$var wire 1 N" D1readAEQWBreadB $end
$var wire 1 O" D1readAEQWBwriteA $end
$var wire 1 P" D1readAEQWBwriteB $end
$var wire 1 Q" D1readAEQXreadA $end
$var wire 1 R" D1readAEQXreadB $end
$var wire 1 S" D1readAEQXwriteA $end
$var wire 1 T" D1readAEQXwriteB $end
$var wire 1 U" D1readARD0readA $end
$var wire 1 V" D1readARD0readB $end
$var wire 1 W" D1readARWBreadA $end
$var wire 1 X" D1readARWBreadB $end
$var wire 1 Y" D1readARXreadA $end
$var wire 1 Z" D1readARXreadB $end
$var wire 1 [" D1readAUD0writeA $end
$var wire 1 \" D1readAUD0writeB $end
$var wire 1 ]" D1readAUWBwriteA $end
$var wire 1 ^" D1readAUWBwriteB $end
$var wire 1 _" D1readAUXwriteA $end
$var wire 1 `" D1readAUXwriteB $end
$var wire 5 a" D1readB [0:4] $end
$var wire 1 b" D1readBEQD0readA $end
$var wire 1 c" D1readBEQD0readB $end
$var wire 1 d" D1readBEQD0writeA $end
$var wire 1 e" D1readBEQD0writeB $end
$var wire 1 f" D1readBEQWBreadA $end
$var wire 1 g" D1readBEQWBreadB $end
$var wire 1 h" D1readBEQWBwriteA $end
$var wire 1 i" D1readBEQWBwriteB $end
$var wire 1 j" D1readBEQXreadA $end
$var wire 1 k" D1readBEQXreadB $end
$var wire 1 l" D1readBEQXwriteA $end
$var wire 1 m" D1readBEQXwriteB $end
$var wire 1 n" D1readBRD0readA $end
$var wire 1 o" D1readBRD0readB $end
$var wire 1 p" D1readBRWBreadA $end
$var wire 1 q" D1readBRWBreadB $end
$var wire 1 r" D1readBRXreadA $end
$var wire 1 s" D1readBRXreadB $end
$var wire 1 t" D1readBUD0writeA $end
$var wire 1 u" D1readBUD0writeB $end
$var wire 1 v" D1readBUWBwriteA $end
$var wire 1 w" D1readBUWBwriteB $end
$var wire 1 x" D1readBUXwriteA $end
$var wire 1 y" D1readBUXwriteB $end
$var wire 5 z" D1rs [0:4] $end
$var wire 5 {" D1rt [0:4] $end
$var wire 10 |" D1spr [0:9] $end
$var wire 4 }" D1vaState [0:3] $end
$var wire 4 ~" D1vbState [0:3] $end
$var wire 1 !# D1write0 $end
$var wire 1 "# D1write1 $end
$var wire 5 ## D1writeA [0:4] $end
$var wire 5 $# D1writeB [0:4] $end
$var wire 10 %# D1xop10 [0:9] $end
$var wire 9 &# D1xop9 [0:8] $end
$var wire 1 '# Dread0 $end
$var wire 1 (# Dread1 $end
$var wire 5 )# DreadA [0:4] $end
$var wire 5 *# DreadB [0:4] $end
$var wire 1 +# Dwrite0 $end
$var wire 1 ,# Dwrite1 $end
$var wire 5 -# DwriteA [0:4] $end
$var wire 5 .# DwriteB [0:4] $end
$var wire 64 /# WB0ds [0:63] $end
$var wire 1 0# WB0isAdd $end
$var wire 1 1# WB0isAddi $end
$var wire 1 2# WB0isLd $end
$var wire 1 3# WB0isLdu $end
$var wire 1 4# WB0isMFSpr $end
$var wire 1 5# WB0isOr $end
$var wire 1 6# WB0isSc $end
$var wire 1 7# WB0isStd $end
$var wire 8 8# WB0lev [0:7] $end
$var wire 6 9# WB0opcode [0:5] $end
$var wire 5 :# WB0ra [0:4] $end
$var wire 5 ;# WB0rt [0:4] $end
$var wire 64 <# WB0si [0:63] $end
$var wire 10 =# WB0spr [0:9] $end
$var wire 1 ># WB0write0 $end
$var wire 1 ?# WB0write1 $end
$var wire 5 @# WB0writeA [0:4] $end
$var wire 5 A# WB0writeB [0:4] $end
$var wire 64 B# WB0writeDataA [0:63] $end
$var wire 64 C# WB0writeDataB [0:63] $end
$var wire 10 D# WB0xop10 [0:9] $end
$var wire 9 E# WB0xop9 [0:8] $end
$var wire 64 F# WB1ds [0:63] $end
$var wire 1 G# WB1isAdd $end
$var wire 1 H# WB1isAddi $end
$var wire 1 I# WB1isLd $end
$var wire 1 J# WB1isLdu $end
$var wire 1 K# WB1isMFSpr $end
$var wire 1 L# WB1isOr $end
$var wire 1 M# WB1isSc $end
$var wire 1 N# WB1isStd $end
$var wire 8 O# WB1lev [0:7] $end
$var wire 6 P# WB1opcode [0:5] $end
$var wire 5 Q# WB1ra [0:4] $end
$var wire 5 R# WB1rt [0:4] $end
$var wire 64 S# WB1si [0:63] $end
$var wire 10 T# WB1spr [0:9] $end
$var wire 64 U# WB1va [0:63] $end
$var wire 64 V# WB1vb [0:63] $end
$var wire 1 W# WB1write0 $end
$var wire 1 X# WB1write1 $end
$var wire 5 Y# WB1writeA [0:4] $end
$var wire 5 Z# WB1writeB [0:4] $end
$var wire 64 [# WB1writeDataA [0:63] $end
$var wire 64 \# WB1writeDataB [0:63] $end
$var wire 10 ]# WB1xop10 [0:9] $end
$var wire 9 ^# WB1xop9 [0:8] $end
$var wire 64 _# WBwriteDataA [0:63] $end
$var wire 64 `# WBwriteDataB [0:63] $end
$var wire 8 a# X0crm [0:7] $end
$var wire 64 b# X0ds [0:63] $end
$var wire 64 c# X0ea [0:63] $end
$var wire 1 d# X0isAdd $end
$var wire 1 e# X0isAddi $end
$var wire 1 f# X0isLd $end
$var wire 1 g# X0isLdu $end
$var wire 1 h# X0isMFSpr $end
$var wire 1 i# X0isMTCrf $end
$var wire 1 j# X0isMTSpr $end
$var wire 1 k# X0isOr $end
$var wire 1 l# X0isSc $end
$var wire 1 m# X0isStd $end
$var wire 8 n# X0lev [0:7] $end
$var wire 1 o# X0oe $end
$var wire 6 p# X0opcode [0:5] $end
$var wire 5 q# X0ra [0:4] $end
$var wire 5 r# X0rb [0:4] $end
$var wire 1 s# X0rc $end
$var wire 64 t# X0readva [0:63] $end
$var wire 64 u# X0readvb [0:63] $end
$var wire 5 v# X0regA [0:4] $end
$var wire 1 w# X0regAEQXA $end
$var wire 1 x# X0regAEQXB $end
$var wire 1 y# X0regARXA $end
$var wire 1 z# X0regARXB $end
$var wire 5 {# X0regB [0:4] $end
$var wire 1 |# X0regBEQXA $end
$var wire 1 }# X0regBEQXB $end
$var wire 1 ~# X0regBRXA $end
$var wire 1 !$ X0regBRXB $end
$var wire 64 "$ X0result [0:63] $end
$var wire 5 #$ X0rs [0:4] $end
$var wire 5 $$ X0rt [0:4] $end
$var wire 10 %$ X0spr [0:9] $end
$var wire 64 &$ X0va [0:63] $end
$var wire 64 '$ X0vb [0:63] $end
$var wire 10 ($ X0xop10 [0:9] $end
$var wire 9 )$ X0xop9 [0:8] $end
$var wire 8 *$ X1crm [0:7] $end
$var wire 64 +$ X1ds [0:63] $end
$var wire 64 ,$ X1ea [0:63] $end
$var wire 1 -$ X1isAdd $end
$var wire 1 .$ X1isAddi $end
$var wire 1 /$ X1isLd $end
$var wire 1 0$ X1isLdu $end
$var wire 1 1$ X1isMFSpr $end
$var wire 1 2$ X1isMTCrf $end
$var wire 1 3$ X1isMTSpr $end
$var wire 1 4$ X1isOr $end
$var wire 1 5$ X1isSc $end
$var wire 1 6$ X1isStd $end
$var wire 8 7$ X1lev [0:7] $end
$var wire 1 8$ X1oe $end
$var wire 6 9$ X1opcode [0:5] $end
$var wire 5 :$ X1ra [0:4] $end
$var wire 5 ;$ X1rb [0:4] $end
$var wire 1 <$ X1rc $end
$var wire 64 =$ X1readva [0:63] $end
$var wire 64 >$ X1readvb [0:63] $end
$var wire 5 ?$ X1regA [0:4] $end
$var wire 1 @$ X1regAEQXA $end
$var wire 1 A$ X1regAEQXB $end
$var wire 1 B$ X1regARXA $end
$var wire 1 C$ X1regARXB $end
$var wire 5 D$ X1regB [0:4] $end
$var wire 1 E$ X1regBEQXA $end
$var wire 1 F$ X1regBEQXB $end
$var wire 1 G$ X1regBRXA $end
$var wire 1 H$ X1regBRXB $end
$var wire 64 I$ X1result [0:63] $end
$var wire 5 J$ X1rs [0:4] $end
$var wire 5 K$ X1rt [0:4] $end
$var wire 10 L$ X1spr [0:9] $end
$var wire 64 M$ X1va [0:63] $end
$var wire 64 N$ X1vb [0:63] $end
$var wire 10 O$ X1xop10 [0:9] $end
$var wire 9 P$ X1xop9 [0:8] $end
$var wire 1 Q$ canParallel $end
$var wire 1 R$ canParallelReadRegs $end
$var wire 1 S$ canParallelWriteRegs $end
$var wire 1 T$ clk $end
$var wire 64 U$ fetch [0:63] $end
$var wire 1 V$ halt $end
$var wire 61 W$ memReadAddr0 [0:60] $end
$var wire 61 X$ memReadAddr1 [0:60] $end
$var wire 64 Y$ memReadData0 [0:63] $end
$var wire 64 Z$ memReadData1 [0:63] $end
$var wire 1 [$ memReadEn0 $end
$var wire 1 \$ memReadEn1 $end
$var wire 61 ]$ memWriteAddr [0:60] $end
$var wire 64 ^$ memWriteData [0:63] $end
$var wire 1 _$ memWriteEn $end
$var wire 4 `$ newCr [0:3] $end
$var wire 6 a$ nextHead [0:5] $end
$var wire 6 b$ nextTail [0:5] $end
$var wire 64 c$ nextTruePc [0:63] $end
$var wire 64 d$ nextpc [0:63] $end
$var wire 64 e$ pcPlus8 [0:63] $end
$var wire 64 f$ queue0 [0:63] $end
$var wire 64 g$ queue1 [0:63] $end
$var wire 64 h$ queue2 [0:63] $end
$var wire 3 i$ readNum [0:2] $end
$var wire 2 j$ readNumParallel [0:1] $end
$var wire 5 k$ regReadAddr0 [0:4] $end
$var wire 5 l$ regReadAddr1 [0:4] $end
$var wire 64 m$ regReadData0 [0:63] $end
$var wire 64 n$ regReadData1 [0:63] $end
$var wire 1 o$ regReadEn0 $end
$var wire 1 p$ regReadEn1 $end
$var wire 5 q$ regWriteAddr0 [0:4] $end
$var wire 5 r$ regWriteAddr1 [0:4] $end
$var wire 64 s$ regWriteData0 [0:63] $end
$var wire 64 t$ regWriteData1 [0:63] $end
$var wire 1 u$ regWriteEn0 $end
$var wire 1 v$ regWriteEn1 $end
$var wire 1 w$ stopFetch $end
$var wire 3 x$ writeNum [0:2] $end
$var wire 2 y$ writeNumParallel [0:1] $end
$var reg 64 z$ TruePc [0:63] $end
$var reg 32 {$ WB0inst [0:31] $end
$var reg 64 |$ WB0va [0:63] $end
$var reg 4 }$ WB0vaState [0:3] $end
$var reg 64 ~$ WB0vb [0:63] $end
$var reg 4 !% WB0vbState [0:3] $end
$var reg 32 "% WB1inst [0:31] $end
$var reg 4 #% WB1vaState [0:3] $end
$var reg 64 $% WB1vaUnchecked [0:63] $end
$var reg 4 %% WB1vbState [0:3] $end
$var reg 64 &% WB1vbUnchecked [0:63] $end
$var reg 1 '% WBread0 $end
$var reg 1 (% WBread1 $end
$var reg 5 )% WBreadA [0:4] $end
$var reg 5 *% WBreadB [0:4] $end
$var reg 64 +% WBva [0:63] $end
$var reg 64 ,% WBvb [0:63] $end
$var reg 1 -% WBwrite0 $end
$var reg 1 .% WBwrite1 $end
$var reg 5 /% WBwriteA [0:4] $end
$var reg 5 0% WBwriteB [0:4] $end
$var reg 32 1% X0inst [0:31] $end
$var reg 4 2% X0vaState [0:3] $end
$var reg 4 3% X0vbState [0:3] $end
$var reg 32 4% X1inst [0:31] $end
$var reg 4 5% X1vaState [0:3] $end
$var reg 4 6% X1vbState [0:3] $end
$var reg 1 7% Xread0 $end
$var reg 1 8% Xread1 $end
$var reg 5 9% XreadA [0:4] $end
$var reg 5 :% XreadB [0:4] $end
$var reg 1 ;% Xwrite0 $end
$var reg 1 <% Xwrite1 $end
$var reg 5 =% XwriteA [0:4] $end
$var reg 5 >% XwriteB [0:4] $end
$var reg 32 ?% cr [0:31] $end
$var reg 64 @% ctr [0:63] $end
$var reg 6 A% head [0:5] $end
$var integer 32 B% i [31:0] $end
$var reg 64 C% lr [0:63] $end
$var reg 64 D% oldWBva [0:63] $end
$var reg 64 E% oldWBvb [0:63] $end
$var reg 64 F% oldWBwriteDataA [0:63] $end
$var reg 64 G% oldWBwriteDataB [0:63] $end
$var reg 64 H% pc [0:63] $end
$var reg 1 I% state $end
$var reg 6 J% tail [0:5] $end
$var reg 32 K% xer [0:31] $end
$scope module clock0 $end
$var wire 1 T$ clk $end
$var wire 1 V$ halt $end
$var reg 16 L% cycles [15:0] $end
$var reg 1 M% theClock $end
$upscope $end
$scope module mem0 $end
$var wire 1 T$ clk $end
$var wire 61 N% readAddr0 [63:3] $end
$var wire 61 O% readAddr1 [63:3] $end
$var wire 64 P% readData0 [63:0] $end
$var wire 64 Q% readData1 [63:0] $end
$var wire 1 [$ readEn0 $end
$var wire 1 \$ readEn1 $end
$var wire 61 R% writeAddr [63:3] $end
$var wire 64 S% writeData [63:0] $end
$var wire 1 _$ writeEn $end
$var reg 64 T% d0 [63:0] $end
$var reg 64 U% d1 [63:0] $end
$upscope $end
$scope module gprs $end
$var wire 1 T$ clk $end
$var wire 5 V% readAddr0 [4:0] $end
$var wire 5 W% readAddr1 [4:0] $end
$var wire 64 X% readData0 [63:0] $end
$var wire 64 Y% readData1 [63:0] $end
$var wire 1 o$ readEn0 $end
$var wire 1 p$ readEn1 $end
$var wire 5 Z% writeAddr0 [4:0] $end
$var wire 5 [% writeAddr1 [4:0] $end
$var wire 64 \% writeData0 [63:0] $end
$var wire 64 ]% writeData1 [63:0] $end
$var wire 1 u$ writeEn0 $end
$var wire 1 v$ writeEn1 $end
$var reg 64 ^% d0 [63:0] $end
$var reg 64 _% d1 [63:0] $end
$upscope $end
$upscope $end
$enddefinitions $end
#0
$dumpvars
bx _%
bx ^%
b0 ]%
b0 \%
b0 [%
b0 Z%
bx Y%
bx X%
bx W%
bx V%
bx U%
bx T%
bz S%
b0 R%
bx Q%
bx P%
b0 O%
b0 N%
0M%
b0 L%
b0 K%
b0 J%
0I%
b0 H%
b0 G%
b0 F%
b0 E%
b0 D%
b0 C%
b100000 B%
b0 A%
b0 @%
b0 ?%
b0 >%
b0 =%
0<%
0;%
b0 :%
b0 9%
08%
07%
b0 6%
b0 5%
b0 4%
b0 3%
b0 2%
b0 1%
b0 0%
b0 /%
0.%
0-%
b0 ,%
b0 +%
b0 *%
b0 )%
0(%
0'%
b0 &%
b0 %%
b0 $%
b0 #%
b0 "%
b0 !%
b0 ~$
b0 }$
b0 |$
b0 {$
b0 z$
b0 y$
b0 x$
0w$
0v$
0u$
b0 t$
b0 s$
b0 r$
b0 q$
xp$
xo$
bx n$
bx m$
bx l$
bx k$
bx j$
bx i$
b0 h$
b0 g$
b0 f$
b1000 e$
b1000 d$
b0xx00 c$
b0 b$
b0 a$
bz `$
0_$
bz ^$
b0 ]$
0\$
1[$
bx Z$
bx Y$
b0 X$
b0 W$
0V$
b0 U$
0T$
1S$
xR$
xQ$
b0 P$
b0 O$
b0 N$
b0 M$
b0 L$
b0 K$
b0 J$
b0 I$
0H$
0G$
1F$
1E$
b0 D$
0C$
0B$
1A$
1@$
b0 ?$
b0 >$
b0 =$
0<$
b0 ;$
b0 :$
b0 9$
08$
b0 7$
06$
05$
04$
03$
02$
01$
00$
0/$
0.$
0-$
b0 ,$
b0 +$
b0 *$
b0 )$
b0 ($
b0 '$
b0 &$
b0 %$
b0 $$
b0 #$
b0 "$
0!$
0~#
x}#
x|#
bx {#
0z#
0y#
1x#
1w#
b0 v#
b0 u#
b0 t#
0s#
b0 r#
b0 q#
b0 p#
0o#
b0 n#
0m#
0l#
0k#
0j#
0i#
0h#
0g#
0f#
0e#
0d#
b0 c#
b0 b#
b0 a#
b0 `#
b0 _#
b0 ^#
b0 ]#
b0 \#
b0 [#
b0 Z#
b0 Y#
0X#
0W#
b0 V#
b0 U#
b0 T#
b0 S#
b0 R#
b0 Q#
b0 P#
b0 O#
0N#
0M#
0L#
0K#
0J#
0I#
0H#
0G#
b0 F#
b0 E#
b0 D#
b0 C#
b0 B#
b0 A#
b0 @#
0?#
0>#
b0 =#
b0 <#
b0 ;#
b0 :#
b0 9#
b0 8#
07#
06#
05#
04#
03#
02#
01#
00#
b0 /#
b0 .#
bx -#
0,#
0+#
bx *#
bx )#
x(#
x'#
b0 &#
b0 %#
b0 $#
b0 ##
0"#
0!#
bx0xx ~"
bx0xx }"
b0xxxxx |"
b0 {"
b0 z"
0y"
0x"
0w"
0v"
xu"
xt"
0s"
0r"
0q"
0p"
xo"
xn"
1m"
1l"
1k"
1j"
1i"
1h"
1g"
1f"
xe"
xd"
xc"
xb"
b0 a"
0`"
0_"
0^"
0]"
x\"
x["
0Z"
0Y"
0X"
0W"
xV"
xU"
1T"
1S"
1R"
1Q"
1P"
1O"
1N"
1M"
xL"
xK"
xJ"
xI"
b0 H"
0G"
0F"
0E"
0D"
xC"
xB"
0A"
0@"
0?"
0>"
0="
x<"
x;"
0:"
b0 9"
b0 8"
b0 7"
x6"
x5"
b0 4"
03"
02"
01"
00"
0/"
0."
0-"
0,"
0+"
0*"
0)"
0("
0'"
b0 &"
1%"
x$"
b0 #"
b0 ""
b0 !"
b0 ~
bx }
bx |
0{
0z
xy
xx
bx w
0v
0u
xt
xs
bx r
0q
xp
0o
xn
b0 m
b0 l
bx k
bx j
bx i
0h
0g
0f
0e
0d
0c
0b
0a
x`
x_
x^
x]
x\
x[
xZ
xY
bx X
0W
0V
0U
0T
0S
0R
0Q
0P
xO
xN
xM
xL
xK
xJ
xI
xH
bx G
0F
0E
0D
0C
xB
0A
0@
0?
0>
x=
bx <
bx ;
bx :
19
18
x7
06
b0xxxxxxx 5
x4
x3
x2
x1
x0
x/
x.
x-
x,
x+
x*
x)
x(
bx '
x&
x%
bx $
b0 #
bx "
bx !
$end
#1
bx "$
bx '$
bx &$
bx ,$
bx M$
bx N$
bx }"
bx ~"
bx X$
bx O%
x6
x\$
b0xxx m
b0xxx l
xl#
xg#
bx v#
xj#
xh#
b10 b$
b0xx a$
bx u#
xE
x@
bx t#
bx =$
bx >$
x?"
xF"
xd#
xk#
xi#
xf#
bx c$
b11100000000000000000000000000000111000011000000000000001101000 U$
b10000 d$
x~#
xc
xR
x!$
xd
xS
xY"
xr"
xy#
xB$
xG$
xZ"
xs"
xz#
xC$
xH$
xe#
xm#
bx p#
bx $$
bx #$
bx q#
bx r#
bx a#
b0xxxxxxx n#
bx )$
bx ($
bx %$
bx c#
b0xxxxxxxxxxxxxxxxxxxxxxxxxxxxxxxxxxxxxxxxxxxxxxxxxxxxxxxxxxxx00 b#
xo#
xs#
bx ~
bx !"
b1 W$
b1 N%
b10000 e$
b1 L%
b11100000000000000000000000000000111000011000000000000001101000 T%
b11100000000000000000000000000000111000011000000000000001101000 Y$
b11100000000000000000000000000000111000011000000000000001101000 P%
x7%
x8%
bx =%
xS"
xl"
bx 9%
xQ"
xj"
xw#
x@$
xE$
bx :%
xR"
xk"
xx#
xA$
xF$
bx 1%
bx0xx 5%
bx0xx 6%
b0 )%
1M"
1f"
b0 *%
1N"
1g"
b0xx00 z$
1I%
b1000 H%
1M%
1T$
#2
0M%
0T$
#3
bx _#
bx s$
bx \%
bx `#
bx t$
bx ]%
x8
x9
bx .#
xo
xq
xu
xz
xV$
x:"
xv
x{
x+#
x,#
bx y$
xA"
x!#
bx B#
x>#
x2"
x"#
xS$
bx x$
x."
bx H"
x0"
x6#
x?#
x3#
x4#
b0xx0 b$
x,"
bx #"
bx ##
xT"
xm"
xP"
xi"
bx a"
x'"
x1"
x/"
x+"
x-"
x%"
bx a$
xC
x>
x="
xD"
bx @#
x0#
x5#
x2#
b1x000 d$
x3"
x("
x)"
x*"
bx 7"
bx z"
bx {"
bx 8"
bx $#
bx 9"
b0xxxxxxx 4"
bx &#
bx %#
bx |"
xw$
xa
xP
xb
xQ
xW"
xp"
xX"
xq"
x7#
x1#
bx 9#
bx ;#
bx :#
bx A#
b0xxxxxxx 8#
bx E#
bx D#
bx =#
bx <#
b0xxxxxxxxxxxxxxxxxxxxxxxxxxxxxxxxxxxxxxxxxxxxxxxxxxxxxxxxxxxx00 /#
bx \#
bx U#
bx V#
b10 W$
b10 N%
b11000 e$
bx &"
b100010000000000000000000000001000111000011000000000000001100101 U$
b0xxx 2%
b0xxx 3%
bx 5%
bx 6%
x'%
x(%
bx /%
xO"
xh"
bx q$
bx Z%
bx )%
xM"
xf"
bx *%
xN"
xg"
bx |$
bx C#
bx ~$
bx {$
bx0xx #%
bx0xx %%
bx $%
bx &%
b111000000000000000000000000000 f$
b111000011000000000000001101000 g$
bx z$
b10000 H%
b10 J%
b0xx A%
b100010000000000000000000000001000111000011000000000000001100101 T%
b100010000000000000000000000001000111000011000000000000001100101 Y$
b100010000000000000000000000001000111000011000000000000001100101 P%
b10 L%
1M%
1T$
#4
0M%
0T$
#5
bx m
bx l
xG"
x@"
xF
xA
bx d$
bx b$
b100010000000000000000000000001000111000011000000000000001101100 U$
xx"
x_"
xg
xV
xy"
x`"
xh
xW
b1x W$
b1x N%
bx e$
b11 L%
b100010000000000000000000000001000111000011000000000000001101100 T%
b100010000000000000000000000001000111000011000000000000001101100 Y$
b100010000000000000000000000001000111000011000000000000001101100 P%
x;%
x<%
bx >%
b0xxx }$
b0xxx !%
bx #%
bx %%
bx F%
bx G%
b1x000 H%
b0xx0 J%
bx A%
1M%
1T$
#6
0M%
0T$
#7
xE"
x>"
xD
x?
xv"
x]"
xe
xT
xw"
x^"
xf
xU
bx W$
bx N%
bx U$
bx 2%
bx 3%
x-%
xu$
x.%
xv$
bx 0%
bx r$
bx [%
bx H%
bx J%
bx T%
bx Y$
bx P%
b100 L%
1M%
1T$
#8
0M%
0T$
#9
b101 L%
bx }$
bx !%
1M%
1T$
#10
0M%
0T$
#11
b110 L%
1M%
1T$
#12
0M%
0T$
#13
b111 L%
1M%
1T$
#14
0M%
0T$
#15
b1000 L%
1M%
1T$
#16
0M%
0T$
#17
b1001 L%
1M%
1T$
#18
0M%
0T$
#19
b1010 L%
1M%
1T$
#20
0M%
0T$
#21
b1011 L%
1M%
1T$
#22
0M%
0T$
#23
b1100 L%
1M%
1T$
#24
0M%
0T$
#25
b1101 L%
1M%
1T$
#26
0M%
0T$
#27
b1110 L%
1M%
1T$
#28
0M%
0T$
#29
b1111 L%
1M%
1T$
#30
0M%
0T$
#31
b10000 L%
1M%
1T$
#32
0M%
0T$
#33
b10001 L%
1M%
1T$
#34
0M%
0T$
#35
b10010 L%
1M%
1T$
#36
0M%
0T$
#37
b10011 L%
1M%
1T$
#38
0M%
0T$
#39
b10100 L%
1M%
1T$
#40
0M%
0T$
#41
b10101 L%
1M%
1T$
#42
0M%
0T$
#43
b10110 L%
1M%
1T$
#44
0M%
0T$
#45
b10111 L%
1M%
1T$
#46
0M%
0T$
#47
b11000 L%
1M%
1T$
#48
0M%
0T$
#49
b11001 L%
1M%
1T$
#50
0M%
0T$
#51
b11010 L%
1M%
1T$
#52
0M%
0T$
#53
b11011 L%
1M%
1T$
#54
0M%
0T$
#55
b11100 L%
1M%
1T$
#56
0M%
0T$
#57
b11101 L%
1M%
1T$
#58
0M%
0T$
#59
b11110 L%
1M%
1T$
#60
0M%
0T$
#61
b11111 L%
1M%
1T$
#62
0M%
0T$
#63
b100000 L%
1M%
1T$
#64
0M%
0T$
#65
b100001 L%
1M%
1T$
#66
0M%
0T$
#67
b100010 L%
1M%
1T$
#68
0M%
0T$
#69
b100011 L%
1M%
1T$
#70
0M%
0T$
#71
b100100 L%
1M%
1T$
#72
0M%
0T$
#73
b100101 L%
1M%
1T$
#74
0M%
0T$
#75
b100110 L%
1M%
1T$
#76
0M%
0T$
#77
b100111 L%
1M%
1T$
#78
0M%
0T$
#79
b101000 L%
1M%
1T$
#80
0M%
0T$
#81
b101001 L%
1M%
1T$
#82
0M%
0T$
#83
b101010 L%
1M%
1T$
#84
0M%
0T$
#85
b101011 L%
1M%
1T$
#86
0M%
0T$
#87
b101100 L%
1M%
1T$
#88
0M%
0T$
#89
b101101 L%
1M%
1T$
#90
0M%
0T$
#91
b101110 L%
1M%
1T$
#92
0M%
0T$
#93
b101111 L%
1M%
1T$
#94
0M%
0T$
#95
b110000 L%
1M%
1T$
#96
0M%
0T$
#97
b110001 L%
1M%
1T$
#98
0M%
0T$
#99
b110010 L%
1M%
1T$
#100
0M%
0T$
#101
b110011 L%
1M%
1T$
#102
0M%
0T$
#103
b110100 L%
1M%
1T$
#104
0M%
0T$
#105
b110101 L%
1M%
1T$
#106
0M%
0T$
